$version=3
!Num Name........       Tipo #Uni .PotIns ..FatOpe              Stat.
   1 NE-1                  0    1    30.8        1                  1
   2 NE-2                  0    1    27.3        1                  1
   3 NE-3                  0    1    23.1        1                  2
   4 NE-4                  0    1    27.3        1                  2
   5 NE-5                  0    1    18.9        1                  2
   6 NE-6                  0    1    23.1        1                  3
   7 NE-7                  0    1    23.1        1                  3
   8 NE-8                  0    1    23.1        1                  1
   9 NE-9                  0    1      21        1                  1
  10 NE-10                 0    1      21        1                  1
  11 NE-11                 0    1      21        1                  1
  12 NE-12                 0    1    28.2        1                  4
  13 NE-13                 0    1    28.2        1                  4
  14 NE-14                 0    1   25.85        1                  4
  15 NE-15                 0    1    28.2        1                  4
  16 NE-16                 0    1    28.2        1                  4
  17 NE-17                 0    1    28.2        1                  4
  18 NE-18                 0    1    28.2        1                  4
  19 NE-19                 0    1    28.2        1                  4
  20 NE-20                 0    1    12.6        1                  2
  21 NE-21                 0    1      25        1                  4
  22 NE-22                 0    1      20        1                  4
  23 NE-23                 0    1      15        1                  4
  24 NE-24                 0    1      25        1                  4
  25 NE-25                 0    1      20        1                  4
  26 NE-26                 0    1    17.5        1                  4
  27 NE-27                 0    1      20        1                  4
  28 NE-28                 0    1      25        1                  4
  29 NE-29                 0    1    17.5        1                  4
  30 NE-30                 0    1      20        1                  4
  31 NE-31                 0    1      20        1                  4
  32 NE-32                 0    1      25        1                  4
  33 NE-33                 0    1    22.5        1                  4
  34 NE-34                 0    1     7.5        1                  4
  35 NE-35                 0    1      25        1                  4
  36 NE-36                 0    1    22.5        1                  4
  37 NE-37                 0    1      15        1                  4
  38 NE-38                 0    1    17.5        1                  4
  39 NE-39                 0    1    16.8        1                  2
  40 NE-40                 0    1      51        1                  1
  41 NE-41                 0    1  100.65        1                  1
  42 NE-42                 0    1   28.56        1                  5
  43 NE-43                 0    1   12.95        1                  5
  44 NE-44                 0    1    27.3        1                  6
  45 NE-45                 0    1    32.9        1                  1
  46 NE-46                 0    1      27        1                  3
  47 NE-47                 0    1      27        1                  3
  48 NE-48                 0    1      27        1                  3
  49 NE-49                 0    1      32        1                  1
  50 NE-50                 0    1      32        1                  1
  51 NE-51                 0    1      32        1                  1
  52 NE-52                 0    1      32        1                  1
  53 NE-53                 0    1      32        1                  1
  54 NE-54                 0    1      30        1                  7
  55 NE-55                 0    1    12.5        1                  7
  56 NE-56                 0    1      30        1                  7
  57 NE-57                 0    1      20        1                  7
  58 NE-58                 0    1      18        1                  7
  59 NE-59                 0    1      27        1                  8
  60 NE-60                 0    1      27        1                  8
  61 NE-61                 0    1      27        1                  8
  62 NE-62                 0    1      27        1                  8
  63 NE-63                 0    1      24        1                  8
  64 NE-64                 0    1      27        1                  8
  65 NE-65                 0    1      27        1                  8
  66 NE-66                 0    1       9        1                  8
  67 NE-67                 0    1    28.2        1                  3
  68 NE-68                 0    1      30        1                  1
  69 NE-69                 0    1      30        1                  1
  70 NE-70                 0    1      30        1                  1
  71 NE-71                 0    1      30        1                  1
  72 NE-72                 0    1    32.9        1                  4
  73 NE-73                 0    1    32.9        1                  4
  74 NE-74                 0    1   25.85        1                  4
  75 NE-75                 0    1      30        1                  9
  76 NE-76                 0    1    24.3        1                 10
  77 NE-77                 0    1      50        1                  2
  78 NE-78                 0    1    23.1        1                 11
  79 NE-79                 0    1    14.7        1                 11
  80 NE-80                 0    1    10.5        1                 11
  81 NE-81                 0    1      21        1                 11
  82 NE-82                 0    1    16.8        1                 11
  83 NE-83                 0    1   20.16        1                  5
  84 NE-84                 0    1      30        1                 12
  85 NE-85                 0    1      26        1                  1
  86 NE-86                 0    1      26        1                  1
  87 NE-87                 0    1      18        1                  1
  88 NE-88                 0    1    28.6        1                  1
  89 NE-89                 0    1    16.8        1                  1
  90 NE-90                 0    1    18.9        1                 10
  91 NE-91                 0    1   30.24        1                  5
  92 NE-92                 0    1      30        1                  5
  93 NE-93                 0    1      30        1                  5
  94 NE-94                 0    1      30        1                  5
  95 NE-95                 0    1    23.8        1                  5
  96 NE-96                 0    1    22.1        1                  5
  97 NE-97                 0    1     8.5        1                  5
  98 NE-98                 0    1      27        1                  6
  99 NE-99                 0    1      18        1                  6
 100 NE-100                0    1    22.2        1                  5
 101 NE-101                0    1      30        1                 10
 102 NE-102                0    1      30        1                 13
 103 NE-103                0    1      30        1                 13
 104 NE-104                0    1      30        1                 13
 105 NE-105                0    1      30        1                 13
 106 NE-106                0    1      30        1                 13
 107 NE-107                0    1      30        1                 13
 108 NE-108                0    1    25.2        1                  1
 109 NE-109                0    1      30        1                  1
 110 NE-110                0    1    25.2        1                  1
 111 NE-111                0    1    25.2        1                  1
 112 NE-112                0    1    29.7        1                  4
 113 NE-113                0    1    29.7        1                  4
 114 NE-114                0    1    29.7        1                  4
 115 NE-115                0    1    29.7        1                  4
 116 NE-116                0    1    29.7        1                  4
 117 NE-117                0    1    29.7        1                  4
 118 NE-118                0    1    29.7        1                  4
 119 NE-119                0    1    29.7        1                  4
 120 NE-120                0    1    29.7        1                  4
 121 NE-121                0    1    29.7        1                  4
 122 NE-122                0    1    29.7        1                  4
 123 NE-123                0    1     9.6        1                  5
 124 NE-124                0    1      57        1                  2
 125 NE-125                0    1    27.5        1                  7
 126 NE-126                0    1      30        1                  6
 127 NE-127                0    1      30        1                  6
 128 NE-128                0    1      27        1                  3
 129 NE-129                0    1    32.9        1                  8
 130 NE-130                0    1    28.2        1                  8
 131 NE-131                0    1      28        1                 12
 132 NE-132                0    1    18.9        1                 10
 133 NE-133                0    1    29.6        1                  5
 134 NE-134                0    1      27        1                 12
 135 NE-135                0    1   27.75        1                  5
 136 NE-136                0    1    20.7        1                  3
 137 NE-137                0    1    29.9        1                  9
 138 NE-138                0    1      30        1                  5
 139 NE-139                0    1      30        1                  5
 140 NE-140                0    1      30        1                  5
 141 NE-141                0    1      20        1                  7
 142 NE-142                0    1    27.5        1                  7
 143 NE-143                0    1   21.84        1                  5
 144 NE-144                0    1      30        1                  9
 145 NE-145                0    1      28        1                 14
 146 NE-146                0    1      28        1                 14
 147 NE-147                0    1      28        1                 14
 148 NE-148                0    1       8        1                 14
 149 NE-149                0    1      28        1                 14
 150 NE-150                0    1      30        1                 14
 151 NE-151                0    1      30        1                 14
 152 NE-152                0    1    17.5        1                  7
 153 NE-153                0    1    17.5        1                  7
 154 NE-154                0    1      30        1                  9
 155 NE-155                0    1   31.86        1                  5
 156 NE-156                0    1   28.56        1                  5
 157 NE-157                0    1      14        1                  3
 158 NE-158                0    1    23.1        1                  3
 159 NE-159                0    1      21        1                  3
 160 NE-160                0    1      30        1                  3
 161 NE-161                0    1      30        1                  3
 162 NE-162                0    1    27.3        1                 10
 163 NE-163                0    1    28.2        1                  5
 164 NE-164                0    1    31.5        1                  2
 165 NE-165                0    1      28        1                  9
 166 NE-166                0    1    27.3        1                  3
 167 NE-167                0    1   10.08        1                  5
 168 NE-168                0    1    29.7        1                 10
 169 NE-169                0    1      30        1                  3
 170 NE-170                0    1      30        1                  3
 171 NE-171                0    1      30        1                  3
 172 NE-172                0    1      27        1                  3
 173 NE-173                0    1       8        1                  3
 174 NE-174                0    1    29.4        1                 10
 175 NE-175                0    1    27.3        1                 10
 176 NE-176                0    1    25.2        1                 10
 177 NE-177                0    1    25.2        1                 10
 178 NE-178                0    1    29.4        1                 10
 179 NE-179                0    1      20        1                  1
 180 NE-180                0    1  30.004        1                 10
 181 NE-181                0    1    23.1        1                  6
 182 NE-182                0    1    27.3        1                  1
 183 NE-183                0    1  30.004        1                 10
 184 NE-184                0    1    20.8        1                  5
 185 NE-185                0    1    28.8        1                  5
 186 NE-186                0    1    27.3        1                 10
 187 NE-187                0    1    37.8        1                 10
 188 NE-188                0    1    54.6        1                 10
 189 NE-189                0    1    30.4        1                  5
 190 NE-190                0    1    29.7        1                 10
 191 NE-191                0    1    11.2        1                  5
 192 NE-192                0    1   31.45        1                  5
 193 NE-193                0    1      27        1                 10
 194 NE-194                0    1      27        1                 10
 195 NE-195                0    1      15        1                 10
 196 NE-196                0    1      21        1                 10
 197 NE-197                0    1      30        1                 10
 198 NE-198                0    1      21        1                 10
 199 NE-199                0    1      24        1                 10
 200 NE-200                0    1      21        1                 10
 201 NE-201                0    1      21        1                 10
 202 NE-202                0    1    32.9        1                  1
 203 NE-203                0    1    28.2        1                  5
 204 NE-204                0    1      24        1                  6
 205 NE-205                0    1      24        1                  6
 206 NE-206                0    1    16.1        1                  3
 207 NE-207                0    1      28        1                 13
 208 NE-208                0    1    27.5        1                  7
 209 NE-209                0    1      25        1                  7
 210 NE-210                0    1      24        1                  5
 211 NE-211                0    1    20.7        1                  3
 212 NE-212                0    1      18        1                 13
 213 NE-213                0    1      18        1                 13
 214 NE-214                0    1   35.07        1                  9
 215 NE-215                0    1    23.1        1                 11
 216 NE-216                0    1      26        1                  1
 217 NE-217                0    1      26        1                  1
 218 NE-218                0    1      26        1                  1
 219 NE-219                0    1      26        1                  1
 220 NE-220                0    1      30        1                  9
 221 NE-221                0    1    23.1        1                  6
 222 NE-222                0    1   30.24        1                  5
 223 NE-223                0    1   68.47        1                  1
 224 NE-224                0    1   30.55        1                  1
 225 NE-225                0    1   25.85        1                  1
 226 NE-226                0    1   30.24        1                  5
 227 NE-227                0    1    32.9        1                  4
 228 NE-228                0    1    28.8        1                  3
 229 NE-229                0    1   29.16        1                  3
 230 NE-230                0    1    28.8        1                  3
 231 NE-231                0    1    28.8        1                  3
 232 NE-232                0    1      30        1                  3
 233 NE-233                0    1    28.8        1                  3
 234 NE-234                0    1  30.004        1                 10
 235 NE-235                0    1    32.9        1                  4
 236 NE-236                0    1    28.8        1                  5
 237 NE-237                0    1   30.06        1                  9
 238 NE-238                0    1    29.7        1                 10
 239 NE-239                0    1    25.6        1                  5
 240 NE-240                0    1    27.3        1                  3
 241 NE-241                0    1   30.55        1                 15
 242 NE-242                0    1      30        1                  4
 243 NE-243                0    1    25.2        1                 10
 244 NE-244                0    1    23.1        1                 10
 245 NE-245                0    1   30.55        1                 15
 246 NE-246                0    1    20.7        1                  3
 247 NE-247                0    1      20        1                 13
 248 NE-248                0    1      20        1                 13
 249 NE-249                0    1      20        1                 13
 250 NE-250                0    1   21.84        1                  5
 251 NE-251                0    1   30.24        1                  5
 252 NE-252                0    1      24        1                  5
 253 NE-253                0    1    27.2        1                  5
 254 NE-254                0    1     6.4        1                  5
 255 NE-255                0    1    27.3        1                  3
 256 NE-256                0    1     105        1                 12
 257 NE-257                0    1    28.8        1                 12
 258 NE-258                0    1    29.9        1                  9
 259 NE-259                0    1      27        1                  3
 260 NE-260                0    1   58.45        1                  1
 261 NE-261                0    1   60.12        1                  1
 262 NE-262                0    1      30        1                  3
 263 NE-263                0    1      30        1                  3
 264 NE-264                0    1      30        1                  3
 265 NE-265                0    1      30        1                  3
 266 NE-266                0    1      30        1                  3
 267 NE-267                0    1    29.7        1                  3
 268 NE-268                0    1      27        1                  3
 269 NE-269                0    1    29.7        1                  3
 270 NE-270                0    1    29.7        1                  3
 271 NE-271                0    1    29.7        1                  3
 272 NE-272                0    1    21.6        1                 10
 273 NE-273                0    1    30.4        1                  5
 274 NE-274                0    1      30        1                  3
 275 NE-275                0    1      30        1                  3
 276 NE-276                0    1      30        1                  3
 277 NE-277                0    1      30        1                  3
 278 NE-278                0    1      30        1                  3
 279 NE-279                0    1      30        1                  3
 280 NE-280                0    1    29.7        1                  1
 281 NE-281                0    1    29.4        1                  3
 282 NE-282                0    1    18.9        1                 10
 283 NE-283                0    1    27.3        1                  3
 284 NE-284                0    1      30        1                 13
 285 NE-285                0    1      24        1                 13
 286 NE-286                0    1      14        1                 10
 287 NE-287                0    1    29.4        1                  6
 288 NE-288                0    1    23.1        1                  6
 289 NE-289                0    1  31.365        1                 16
 290 NE-290                0    1  31.365        1                 16
 291 NE-291                0    1  31.365        1                 16
 292 NE-292                0    1  31.365        1                 16
 293 NE-293                0    1  31.365        1                 16
 294 NE-294                0    1  27.675        1                 16
 295 NE-295                0    1   25.83        1                 16
 296 NE-296                0    1   22.14        1                 16
 297 NE-297                0    1      26        1                 10
 298 NE-298                0    1    25.2        1                  3
 299 NE-299                0    1      27        1                  3
 300 NE-300                0    1      24        1                 10
 301 NE-301                0    1    29.9        1                  9
 302 NE-302                0    1      30        1                  4
 303 NE-303                0    1    23.1        1                  6
 304 NE-304                0    1   30.06        1                  9
 305 NE-305                0    1   30.24        1                  5
 306 NE-306                0    1   23.92        1                 16
 307 NE-307                0    1  22.295        1                 16
 308 NE-308                0    1  22.235        1                 16
 309 NE-309                0    1  22.295        1                 16
 310 NE-310                0    1    25.3        1                 16
 311 NE-311                0    1    25.3        1                 16
 312 NE-312                0    1      20        1                 13
 313 NE-313                0    1      30        1                 13
 314 NE-314                0    1      30        1                 13
 315 NE-315                0    1   18.48        1                  5
 316 NE-316                0    1    19.2        1                  5
 317 NE-317                0    1      30        1                  4
 318 NE-318                0    1    4.95        1                 16
 319 NE-319                0    1    18.8        1                 15
 320 NE-320                0    1    23.1        1                 10
 321 NE-321                0    1    14.7        1                 10
 322 NE-322                0    1    29.6        1                  5
 323 NE-323                0    1      30        1                  5
 324 NE-324                0    1   16.65        1                  5
 325 NE-325                0    1      30        1                  6
 326 NE-326                0    1  25.388        1                 10
 327 NE-327                0    1    32.9        1                  1
 328 NE-328                0    1    22.4        1                  3
 329 NE-329                0    1    14.4        1                  3
 330 NE-330                0    1    25.2        1                  3
 331 NE-331                0    1    18.9        1                  3
 332 NE-332                0    1      21        1                  3
 333 NE-333                0    1    22.4        1                  3
 334 NE-334                0    1    22.4        1                  3
 335 NE-335                0    1    11.2        1                  3
 336 NE-336                0    1      24        1                  3
 337 NE-337                0    1    12.8        1                  3
 338 NE-338                0    1    14.4        1                  3
 339 NE-339                0    1    14.4        1                  3
 340 NE-340                0    1    11.2        1                  3
 341 NE-341                0    1   27.51        1                 11
 342 NE-342                0    1      30        1                 14
 343 NE-343                0    1    28.6        1                  9
 344 NE-344                0    1    30.8        1                  9
 345 NE-345                0    1    28.6        1                  9
 346 NE-346                0    1    28.6        1                  9
 347 NE-347                0    1    27.3        1                  4
 348 NE-348                0    1      28        1                  4
 349 NE-349                0    1      28        1                  4
 350 NE-350                0    1      30        1                 14
 351 NE-351                0    1      30        1                 14
 352 NE-352                0    1      30        1                 14
 353 NE-353                0    1      30        1                 14
 354 NE-354                0    1    29.7        1                 17
 355 NE-355                0    1    27.3        1                  4
 356 NE-356                0    1    27.3        1                  4
 357 NE-357                0    1    29.7        1                 17
 358 NE-358                0    1    13.6        1                 16
 359 NE-359                0    1    27.2        1                 16
 360 NE-360                0    1    28.9        1                 16
 361 NE-361                0    1    27.2        1                 16
 362 NE-362                0    1    28.9        1                 16
 363 NE-363                0    1    28.9        1                 16
 364 NE-364                0    1    27.2        1                 16
 365 NE-365                0    1    29.7        1                 17
 366 NE-366                0    1    27.3        1                  4
 367 NE-367                0    1    29.7        1                 17
 368 NE-368                0    1    28.9        1                 17
 369 NE-369                0    1      30        1                 17
 370 NE-370                0    1    29.6        1                 17
 371 NE-371                0    1    27.2        1                 17
 372 NE-372                0    1    29.6        1                 17
 373 NE-373                0    1    28.9        1                 17
 374 NE-374                0    1      30        1                 17
 375 NE-375                0    1    28.9        1                 17
 376 NE-376                0    1      30        1                 17
 377 NE-377                0    1    29.6        1                 17
 378 NE-378                0    1    29.6        1                 17
 379 NE-379                0    1    28.9        1                 17
 380 NE-380                0    1    29.6        1                 17
 381 NE-381                0    1      30        1                 17
 382 NE-382                0    1    28.9        1                 17
 383 NE-383                0    1    28.9        1                 17
 384 NE-384                0    1    29.7        1                 17
 385 NE-385                0    1    29.7        1                 17
 386 NE-386                0    1    29.7        1                 17
 387 NE-387                0    1    18.4        1                 17
 388 NE-388                0    1    18.4        1                 17
 389 NE-389                0    1    27.6        1                 17
 390 NE-390                0    1    29.6        1                 17
 391 NE-391                0    1    28.9        1                 17
 392 NE-392                0    1    29.6        1                 17
 393 NE-393                0    1    29.9        1                 17
 394 NE-394                0    1    18.4        1                 17
 395 NE-395                0    1    29.4        1                  3
 396 NE-396                0    1    25.3        1                 17
 397 NE-397                0    1    25.3        1                 17
 398 NE-398                0    1    29.9        1                 17
 399 NE-399                0    1    29.9        1                 17
 400 NE-400                0    1    27.6        1                 17
 401 NE-401                0    1      30        1                 17
 402 NE-402                0    1      30        1                 17
 403 NE-403                0    1      30        1                 17
 404 NE-404                0    1    27.6        1                 17
 405 NE-405                0    1    16.2        1                  1
 406 NE-406                0    1    29.4        1                  3
 407 NE-407                0    1    14.7        1                  3
 408 NE-408                0    1      30        1                  3
 409 NE-409                0    1    29.4        1                 17
 410 NE-410                0    1    29.4        1                 17
 411 NE-411                0    1    29.4        1                 17
 412 NE-412                0    1    29.4        1                 17
 413 NE-413                0    1    29.4        1                 17
 414 NE-414                0    1    29.4        1                 17
 415 NE-415                0    1    29.4        1                 17
 416 NE-416                0    1    29.9        1                 17
 417 NE-417                0    1    29.9        1                 17
 418 NE-418                0    1    19.8        1                 17
 419 NE-419                0    1   27.75        1                 11
 420 NE-420                0    1   29.12        1                 11
 421 NE-421                0    1   27.51        1                 11
 422 NE-422                0    1   23.52        1                  5
 423 NE-423                0    1   29.12        1                 11
 424 NE-424                0    1      28        1                  9
 425 NE-425                0    1    27.3        1                  4
 426 NE-426                0    1      30        1                  4
 427 NE-427                0    1      28        1                  4
 428 NE-428                0    1      30        1                 14
 429 NE-429                0    1    27.3        1                  6
 430 NE-430                0    1      24        1                  6
 431 NE-431                0    1      27        1                  6
 432 NE-432                0    1      24        1                  6
 433 NE-433                0    1      24        1                  6
 434 NE-434                0    1      42        1                 12
 435 NE-435                0    1      25        1                  7
 436 NE-436                0    1      10        1                  5
 437 NE-437                0    1  31.185        1                  6
 438 NE-438                0    1    33.6        1                 14
 439 NE-439                0    1      25        1                  7
 440 NE-440                0    1       6        1                  5
 441 NE-441                0    1  31.185        1                  6
 442 NE-442                0    1    33.6        1                 14
 443 NE-443                0    1      16        1                  5
 444 NE-444                0    1    37.8        1                  6
 445 NE-445                0    1      10        1                  5
 446 NE-446                0    1   34.65        1                  6
 447 NE-447                0    1      10        1                  5
 448 NE-448                0    1    37.8        1                  6
 449 NE-449                0    1      16        1                  5
 450 NE-450                0    1   34.65        1                  6
 451 NE-451                0    1      10        1                  5
 452 NE-452                0    1      42        1                  6
 453 NE-453                0    1    29.4        1                 14
 454 NE-454                0    1      10        1                  5
 455 NE-455                0    1    37.8        1                  6
 456 NE-456                0    1      24        1                  2
 457 NE-457                0    1      10        1                  5
 458 NE-458                0    1    37.8        1                  6
 459 NE-459                0    1      27        1                  2
 460 NE-460                0    1       8        1                  5
 461 NE-461                0    1    16.8        1                  6
 462 NE-462                0    1    29.1        1                  2
 463 NE-463                0    1       4        1                  5
 464 NE-464                0    1      21        1                  2
 465 NE-465                0    1      21        1                  2
 466 NE-466                0    1    31.5        1                  3
 467 NE-467                0    1  28.875        1                  3
 468 NE-468                0    1  31.185        1                  6
