NUM ...Nombre... .PV. .VAA .TAA #Uni Tipo ....Pot .FPMed. .QMin.. .QMax.. .VMin.. .VMax.. .VInic. Min.V+T 
 169 SOBRADINHO    169  172  172    6    0    1050 0.22498       0    4278    5447   34116  0.8818     207
 172 ITAPARICA     172  176  176    6    0  1479.6 0.43375       0    3264    7234   10782  0.8559     283
 176 COMP PAF-MOX  176  178  178    1    0  4279.6 1.02005       0    4199    1226    1226       0     284
 178 XINGO         178              6    0    3162 1.07752       0    2976    3800    3800       0     284
 154 ITAPEBI       188              3    0 462.011 0.71595       0     660    1634    1634       0      38
 189 P. CAVALO     254              2    0     1600.917385       0     180    2192    3134       1       3
 190 B. ESPERANCA  190              4    0   237.30.368297       0     624    3173    5085  0.9569     240
