Cenario,Hora,Estacao_1,Estacao_2,Estacao_3,Estacao_4,Estacao_5,Estacao_6,Estacao_7,Estacao_8,Estacao_9,Estacao_10,Estacao_11,Estacao_12,Estacao_13,Estacao_14,Estacao_15,Estacao_16,Estacao_17,Estacao_18,Estacao_19,Estacao_20,Estacao_21,Estacao_22,Estacao_23,Estacao_24
1,1,0.37919,0.40082,0.08812,0.78703,0.29785,0.1025,0.58473,0.86364,0.5708,0.89545,0.63379,0.56559,0.44071,0.85904,0.17454,0.73025,0.30449,0.56559,0.07953,0.17948,0.46035,0.09245,0.44071,0.07953
1,2,0.38685,0.37312,0.00997,0.78703,0.34933,0.08433,0.56906,0.94456,0.58473,0.84653,0.60921,0.59171,0.44722,0.76311,0.1264,0.69005,0.22007,0.59171,0.39614,0.13443,0.46035,0.00462,0.44234,0.39614
1,3,0.39926,0.34933,0,0.79211,0.32085,0.08291,0.63731,0.87999,0.57602,0.79211,0.58822,0.59871,0.462,0.74586,0.10366,0.59871,0.23,0.59871,0.46035,0.1336,0.44722,0.09753,0.42778,0.46035
1,4,0.40552,0.32503,0.00915,0.79042,0.33491,0.09147,0.70407,0.84335,0.54828,0.7372,0.5708,0.62852,0.42618,0.77339,0.10989,0.50382,0.30449,0.62852,0.41342,0.15089,0.40082,0.09648,0.4071,0.41342
1,5,0.41978,0.29522,0.11255,0.80225,0.33348,0.09444,0.69707,0.82881,0.52252,0.68127,0.56733,0.69356,0.40552,0.77681,0.12107,0.47028,0.34207,0.69356,0.37161,0.18048,0.36709,0.10308,0.36112,0.37161
1,6,0.42618,0.2798,0.23449,0.82059,0.29132,0.08907,0.68303,0.83693,0.5157,0.59346,0.53279,0.76483,0.37312,0.80392,0.13197,0.42137,0.32363,0.76483,0.25296,0.23449,0.34063,0.11671,0.31946,0.25296
1,7,0.3392,0.29261,0.24362,0.89133,0.18853,0.06894,0.73893,0.92868,0.34352,0.65842,0.58124,0.9086,0.32085,0.87561,0.16294,0.7424,0.24826,0.9086,0.14204,0.34787,0.32363,0.13197,0.20613,0.14204
1,8,0.56733,0.5123,0.20192,0.89271,0.18148,0.06594,0.89681,0.96022,0.62676,0.7938,0.89815,0.98543,0.53451,0.95814,0.30182,0.72154,0.34787,0.98543,0.10135,0.37615,0.32363,0.13525,0.02508,0.10135
1,9,0.63555,0.53279,0.17849,0.78363,0.17355,0.05934,0.82389,0.90082,0.7424,0.81062,0.93601,0.98818,0.50212,0.97855,0.34787,0.52252,0.41818,0.98818,0.07122,0.24478,0.32783,0.15917,0,0.07122
1,10,0.61272,0.43261,0.20824,0.60221,0.15638,0.05097,0.676,0.74413,0.67073,0.7955,0.89681,0.97652,0.40395,0.99145,0.28616,0.36859,0.4587,0.97652,0.10989,0.04845,0.29917,0.14819,0.06894,0.10989
1,11,0.57776,0.34642,0.27604,0.42297,0.1264,0.05416,0.48529,0.56906,0.55001,0.76997,0.79042,0.93701,0.32224,0.99677,0.21573,0.28488,0.45377,0.93701,0.12033,0.0191,0.25652,0.09099,0.40395,0.12033
1,12,0.55346,0.28361,0.42778,0.28616,0.09806,0.06776,0.31533,0.41659,0.44886,0.75105,0.65138,0.85439,0.27107,0.99863,0.16676,0.25891,0.39614,0.85439,0.09913,0.10308,0.21681,0.07177,0.63028,0.09913
1,13,0.54656,0.25652,0.58473,0.21898,0.08386,0.08433,0.21898,0.33348,0.38378,0.73199,0.52765,0.73546,0.25771,0.99975,0.16011,0.29654,0.37312,0.73546,0.11391,0.15824,0.1865,0.10366,0.35815,0.11391
1,14,0.55001,0.25414,0.67249,0.20402,0.07394,0.10989,0.16199,0.29917,0.33776,0.72503,0.43585,0.65842,0.26984,1,0.17552,0.37919,0.38072,0.65842,0.10733,0.16294,0.1658,0.13116,0.08812,0.10733
1,15,0.56212,0.26984,0.61097,0.22335,0.07066,0.15638,0.13525,0.28488,0.29917,0.7372,0.37463,0.65314,0.30988,1,0.1988,0.49537,0.40082,0.65314,0.14909,0.15638,0.16484,0.14909,0.30182,0.14909
1,16,0.5795,0.3126,0.42618,0.26861,0.08528,0.17948,0.14819,0.28616,0.28107,0.76826,0.34787,0.71456,0.3977,1,0.22007,0.65138,0.43746,0.71456,0.21681,0.14553,0.19466,0.18248,0.61097,0.21681
1,17,0.57776,0.38531,0.27729,0.33348,0.12107,0.16772,0.18048,0.3005,0.28233,0.80895,0.37919,0.82553,0.47693,1,0.28233,0.81396,0.44396,0.82553,0.23676,0.2179,0.24362,0.15362,0.61798,0.23676
1,18,0.61623,0.53279,0.20718,0.43909,0.16389,0.18048,0.30182,0.34787,0.30988,0.81062,0.5157,0.89949,0.56385,1,0.51911,0.91961,0.36709,0.89949,0.28233,0.16294,0.29522,0.14204,0.53795,0.28233
1,19,0.62501,0.53108,0.1775,0.59696,0.22556,0.22335,0.55865,0.4587,0.3977,0.77168,0.67424,0.91961,0.59171,0.9996,0.82717,0.89815,0.28488,0.91961,0.25178,0.21251,0.34207,0.16011,0.49875,0.25178
1,20,0.5708,0.43261,0.16294,0.66194,0.24362,0.25891,0.79718,0.65314,0.47527,0.7372,0.69531,0.87708,0.50382,0.99825,0.83044,0.89271,0.21681,0.87708,0.17948,0.3701,0.37463,0.09968,0.57428,0.17948
1,21,0.51911,0.34063,0.15454,0.71631,0.23,0.27355,0.90987,0.84653,0.53451,0.70757,0.63907,0.81728,0.4587,0.99767,0.86364,0.81229,0.24017,0.81728,0.17355,0.42618,0.38378,0.07904,0.45542,0.17355
1,22,0.4786,0.34352,0.13443,0.78363,0.22889,0.28744,0.80895,0.86516,0.53623,0.70057,0.54483,0.78872,0.44234,0.9897,0.7198,0.67249,0.3701,0.78872,0.18752,0.31396,0.37161,0.07603,0.32085,0.18752
1,23,0.44396,0.42297,0.10366,0.86058,0.23,0.29785,0.70057,0.75278,0.52423,0.71107,0.4786,0.77168,0.43423,0.94972,0.61447,0.53279,0.55001,0.77168,0.1658,0.23224,0.35226,0.08195,0.17849,0.1658
1,24,0.41978,0.48027,0.07603,0.90987,0.26373,0.30853,0.62852,0.67073,0.5089,0.72851,0.46035,0.75105,0.44234,0.83854,0.50212,0.44886,0.54139,0.75105,0.15824,0.49369,0.3392,0.08433,0.08575,0.15824
1,25,0.41978,0.462,0.03425,0.84335,0.22889,0.32085,0.59171,0.66721,0.5089,0.74932,0.462,0.74413,0.462,0.77681,0.45542,0.39926,0.48529,0.74413,0.12409,0.82224,0.33491,0.08528,0.04491,0.12409
1,26,0.40552,0.462,0.00395,0.7424,0.22777,0.32224,0.55692,0.85439,0.52252,0.72503,0.44886,0.75967,0.47194,0.6883,0.26738,0.42778,0.53279,0.75967,0.09753,0.92868,0.33206,0.0867,0.02407,0.09753
1,27,0.39458,0.46696,0.01529,0.72329,0.19159,0.27855,0.5123,0.76654,0.5708,0.67776,0.43909,0.81062,0.46531,0.63028,0.22556,0.44396,0.60396,0.81062,0.1146,0.95954,0.32224,0.09596,0.02307,0.1146
1,28,0.40238,0.46035,0.05416,0.76311,0.16676,0.20824,0.55692,0.67424,0.69356,0.71282,0.44886,0.85594,0.46035,0.64259,0.31946,0.50212,0.60746,0.85594,0.13777,0.94274,0.28361,0.11188,0.03324,0.13777
1,29,0.41183,0.44886,0.10608,0.77339,0.15824,0.1716,0.56385,0.63379,0.65666,0.71806,0.45706,0.87999,0.43423,0.63555,0.34933,0.50382,0.5123,0.87999,0.1473,0.88287,0.22335,0.14032,0.06655,0.1473
1,30,0.43585,0.41659,0.18853,0.75967,0.17062,0.21681,0.56906,0.63555,0.66194,0.69882,0.4587,0.86211,0.37767,0.70232,0.32924,0.5174,0.45377,0.86211,0.15089,0.67776,0.15824,0.13693,0.09344,0.15089
1,31,0.34352,0.41342,0.23676,0.84335,0.10733,0.23,0.57254,0.676,0.52082,0.80392,0.40395,0.87266,0.27729,0.74586,0.56559,0.75105,0.54656,0.87266,0.15638,0.83531,0.1264,0.12332,0.13609,0.15638
1,32,0.50551,0.67073,0.28616,0.87117,0.11391,0.21037,0.76826,0.82881,0.66194,0.9136,0.53108,0.9761,0.41978,0.97385,0.74413,0.7545,0.76826,0.9761,0.1336,0.91604,0.11391,0.09753,0.04212,0.1336
1,33,0.58473,0.71282,0.41659,0.80895,0.17454,0.20824,0.69531,0.70932,0.71282,0.91961,0.50551,0.98401,0.35373,0.99416,0.74586,0.63731,0.76997,0.98401,0.15546,0.84811,0.11814,0.10989,0.00678,0.15546
1,34,0.53623,0.6215,0.5123,0.70232,0.21251,0.18248,0.49706,0.49369,0.57254,0.91112,0.39614,0.96878,0.24826,0.99599,0.76139,0.50721,0.70932,0.96878,0.1473,0.64083,0.13443,0.18449,0.05791,0.1473
1,35,0.48529,0.50551,0.56212,0.59696,0.21358,0.17651,0.29917,0.32363,0.37463,0.89949,0.28488,0.9136,0.17355,0.99519,0.81894,0.41818,0.65314,0.9136,0.10608,0.55519,0.16294,0.30583,0.05493,0.10608
1,36,0.44886,0.3977,0.58299,0.5123,0.1855,0.16105,0.19261,0.23676,0.23789,0.89681,0.2093,0.82224,0.11742,0.99429,0.88714,0.38378,0.62852,0.82224,0.08243,0.61097,0.20613,0.42297,0.01082,0.08243
1,37,0.45377,0.32924,0.62325,0.47694,0.14118,0.14291,0.14999,0.21358,0.17651,0.90987,0.17552,0.72851,0.09913,0.99328,0.94632,0.41025,0.64083,0.72851,0.07394,0.78192,0.22335,0.48194,0,0.07394
1,38,0.48027,0.29522,0.67249,0.48361,0.10023,0.15362,0.13609,0.21358,0.16105,0.93398,0.16294,0.67424,0.1025,0.99402,0.97694,0.47693,0.66545,0.67424,0.07805,0.94545,0.21251,0.52937,0,0.07805
1,39,0.50212,0.28616,0.69531,0.5123,0.07232,0.20402,0.12562,0.1988,0.17355,0.95214,0.15089,0.67776,0.1146,0.99554,0.99011,0.58124,0.67249,0.67776,0.09051,0.9918,0.20613,0.78022,0,0.09051
1,40,0.54483,0.31533,0.66897,0.55865,0.03726,0.24017,0.13278,0.16389,0.21573,0.96089,0.17454,0.73546,0.14378,0.99619,0.99265,0.70932,0.64962,0.73546,0.09294,0.99813,0.20613,0.94274,0,0.09294
1,41,0.5795,0.415,0.61097,0.61447,0.00834,0.25533,0.16105,0.11887,0.28361,0.96221,0.25533,0.82224,0.20824,0.99668,0.98841,0.82881,0.57428,0.82224,0.07705,0.99825,0.20824,0.72503,0,0.07705
1,42,0.63555,0.58997,0.58997,0.63379,0,0.30449,0.25533,0.09147,0.38685,0.935,0.39614,0.87117,0.33633,0.99126,0.93897,0.89949,0.42778,0.87117,0.08386,0.99599,0.21898,0.58822,0,0.08386
1,43,0.63028,0.55346,0.58997,0.66194,0,0.34207,0.48361,0.06405,0.55174,0.84015,0.492,0.84494,0.43261,0.94889,0.73546,0.81229,0.31124,0.84494,0.09648,0.98246,0.24594,0.60571,0.08481,0.09648
1,44,0.58299,0.42618,0.58822,0.66897,0,0.35963,0.63379,0.03923,0.67073,0.78533,0.50043,0.74413,0.41659,0.91236,0.57776,0.80392,0.24594,0.74413,0.08623,0.92868,0.28361,0.55001,0.34352,0.08623
1,45,0.58648,0.3641,0.56733,0.69707,0,0.35815,0.61272,0.05014,0.7198,0.73025,0.47527,0.69005,0.34497,0.9086,0.52765,0.78703,0.31396,0.69005,0.06531,0.82717,0.3167,0.48864,0.6883,0.06531
1,46,0.65666,0.3167,0.5157,0.74586,0.00604,0.36112,0.58299,0.08051,0.7372,0.70932,0.48361,0.6215,0.28488,0.86968,0.4786,0.67424,0.57602,0.6215,0.07904,0.9761,0.34497,0.48027,0.66721,0.07904
1,47,0.61447,0.33065,0.44886,0.81396,0.05644,0.34787,0.49537,0.12257,0.67073,0.74067,0.34642,0.57254,0.23789,0.75278,0.37312,0.56559,0.83044,0.57254,0.04758,0.98674,0.37312,0.59171,0.66369,0.04758
1,48,0.57602,0.44722,0.4071,0.79718,0.08339,0.33348,0.42297,0.19984,0.61272,0.80728,0.27604,0.53967,0.21465,0.61097,0.38531,0.49875,0.78872,0.53967,0.03923,0.99031,0.39148,0.70757,0.50551,0.03923
1,49,0.55174,0.52252,0.415,0.74759,0.14999,0.35373,0.4071,0.27855,0.60921,0.83369,0.30988,0.49875,0.22889,0.5089,0.4071,0.46035,0.58648,0.49875,0.05934,0.97969,0.3977,0.63204,0.43423,0.05934
1,50,0.50721,0.53795,0.41183,0.7545,0.29002,0.38839,0.39458,0.37919,0.62852,0.88144,0.32363,0.50212,0.25891,0.44559,0.415,0.43909,0.45213,0.50212,0.06655,0.89409,0.3701,0.43585,0.39458,0.06655
1,51,0.40867,0.47693,0.41978,0.82059,0.34063,0.37615,0.37463,0.55174,0.64083,0.86968,0.28233,0.52765,0.28488,0.415,0.40867,0.49032,0.39303,0.52765,0.08717,0.7545,0.32085,0.24826,0.32783,0.08717
1,52,0.3701,0.41025,0.43746,0.83854,0.27604,0.3126,0.36859,0.68127,0.65314,0.79211,0.25414,0.60746,0.29392,0.37615,0.48529,0.50043,0.37312,0.60746,0.10308,0.68303,0.27479,0.14378,0.28361,0.10308
1,53,0.36112,0.42457,0.4736,0.81894,0.24826,0.25178,0.3701,0.64962,0.66369,0.79211,0.23112,0.65842,0.30316,0.41025,0.5157,0.50382,0.38685,0.65842,0.11323,0.60221,0.24247,0.16105,0.27231,0.11323
1,54,0.35815,0.3552,0.492,0.81396,0.24247,0.20718,0.3977,0.55174,0.67776,0.6883,0.19057,0.68303,0.30182,0.431,0.48361,0.50382,0.41818,0.68303,0.14378,0.5174,0.2093,0.21144,0.24478,0.14378
1,55,0.48027,0.38531,0.43423,0.90475,0.18248,0.16105,0.41818,0.47194,0.57254,0.81062,0.20402,0.76139,0.25178,0.45213,0.59696,0.62325,0.59171,0.76139,0.12955,0.3977,0.18449,0.23562,0.25178,0.12955
1,56,0.73893,0.56212,0.54828,0.91236,0.23903,0.16105,0.66545,0.68654,0.92648,0.92424,0.33776,0.94088,0.28873,0.75967,0.78363,0.56385,0.86364,0.94088,0.10989,0.28361,0.16772,0.14999,0.13609,0.10989
1,57,0.64083,0.55692,0.52423,0.81894,0.25891,0.17062,0.58473,0.58299,0.90733,0.89681,0.35667,0.935,0.23676,0.71107,0.77339,0.43585,0.79042,0.935,0.07499,0.22446,0.14909,0.12182,0.08575,0.07499
1,58,0.50043,0.47028,0.492,0.69531,0.25533,0.15546,0.37919,0.38839,0.78363,0.85283,0.30988,0.87266,0.17062,0.62501,0.79042,0.34207,0.62852,0.87266,0.07705,0.18752,0.12955,0.13777,0.09806,0.07705
1,59,0.40238,0.35963,0.47194,0.57776,0.22556,0.13278,0.22446,0.24362,0.60396,0.8056,0.22666,0.7751,0.12562,0.57776,0.80056,0.3005,0.5089,0.7751,0.05416,0.1153,0.11671,0.11671,0.10608,0.05416
1,60,0.35373,0.26011,0.44722,0.48194,0.20402,0.10608,0.13609,0.15362,0.44071,0.76654,0.14378,0.68127,0.10608,0.55346,0.81062,0.3005,0.44396,0.68127,0,0.06835,0.12257,0.10079,0.13035,0
1,61,0.35963,0.19159,0.42297,0.43585,0.19466,0.08339,0.09806,0.11323,0.32783,0.7545,0.09806,0.61623,0.10547,0.54656,0.83207,0.33206,0.44071,0.61623,0,0.00834,0.13525,0.09596,0.12562,0
1,62,0.38072,0.15362,0.40867,0.41978,0.18853,0.07603,0.07394,0.09494,0.26131,0.7751,0.08433,0.58997,0.11188,0.55001,0.86516,0.39614,0.46035,0.58997,0,0,0.15731,0.09806,0.097,0
1,63,0.40238,0.13777,0.42297,0.41659,0.1865,0.08528,0.03222,0.08147,0.23112,0.80728,0.09806,0.59521,0.12182,0.56212,0.90082,0.492,0.45542,0.59521,0,0,0.1855,0.11255,0.08575,0
1,64,0.44233,0.14999,0.46696,0.43261,0.18752,0.11055,0.03324,0.07394,0.22889,0.83693,0.1716,0.62501,0.14999,0.59696,0.9231,0.62325,0.43585,0.62501,0,0,0.20088,0.12876,0.08147,0
1,65,0.49032,0.20507,0.50721,0.47194,0.17849,0.15731,0.09099,0.08002,0.25891,0.86058,0.30718,0.69356,0.20297,0.63731,0.9136,0.76654,0.40867,0.69356,0,0,0.20507,0.14378,0.08386,0
1,66,0.58997,0.35226,0.61097,0.54139,0.20402,0.21898,0.19569,0.13946,0.34642,0.82881,0.42618,0.73893,0.29522,0.64786,0.81229,0.88287,0.37463,0.73893,0,0.0734,0.19261,0.17454,0.09596,0
1,67,0.61623,0.41659,0.64434,0.66369,0.27231,0.29522,0.24362,0.22666,0.5174,0.69707,0.49032,0.72329,0.34787,0.70932,0.72154,0.83207,0.32085,0.72329,0,0.15638,0.19466,0.16011,0.11055,0
1,68,0.56559,0.32924,0.60921,0.6918,0.35226,0.34497,0.17651,0.22556,0.63028,0.64434,0.54139,0.63907,0.33348,0.73025,0.60221,0.90214,0.20192,0.63907,0,0.21144,0.22116,0.07755,0.10079,0
1,69,0.53108,0.24362,0.58124,0.70932,0.44559,0.37919,0.1153,0.15638,0.66897,0.63555,0.58997,0.57428,0.27729,0.73025,0.54828,0.89949,0.1025,0.57428,0,0.17651,0.25296,0,0.08717,0
1,70,0.48697,0.20297,0.54828,0.73373,0.55174,0.39926,0.09753,0.11814,0.65666,0.63204,0.51911,0.514,0.24017,0.80224,0.49369,0.78703,0.07177,0.514,0,0.17454,0.25891,0,0.1196,0
1,71,0.43423,0.22335,0.5089,0.79211,0.62501,0.39926,0.10192,0.1775,0.63907,0.62676,0.38839,0.462,0.22335,0.84335,0.40082,0.60746,0.13035,0.462,0.10796,0.18853,0.2471,0,0.20402,0.10796
1,72,0.40238,0.30182,0.47527,0.70232,0.55519,0.39614,0.10547,0.25891,0.63555,0.6461,0.35815,0.41025,0.21573,0.75622,0.31124,0.48194,0.48361,0.41025,0.22556,0.15271,0.21465,0,0.3005,0.22556
1,73,0.41025,0.35226,0.45706,0.60746,0.52937,0.37767,0.1146,0.19673,0.66369,0.66721,0.34352,0.33491,0.18449,0.67952,0.28873,0.38378,0.72154,0.33491,0.23112,0.12107,0.17651,0,0.34352,0.23112
1,74,0.43261,0.38531,0.44722,0.56212,0.48697,0.35226,0.13777,0.10426,0.65666,0.67073,0.41183,0.30449,0.14118,0.70932,0.25178,0.37767,0.56906,0.30449,0.23789,0.1518,0.15638,0,0.32924,0.23789
1,75,0.45377,0.45377,0.44071,0.54311,0.49369,0.32783,0.17849,0.06208,0.64259,0.66018,0.39926,0.30583,0.11323,0.71107,0.21681,0.39303,0.48697,0.30583,0.25414,0.20297,0.15454,0,0.23676,0.25414
1,76,0.45213,0.38994,0.43746,0.52082,0.48194,0.30988,0.22116,0.07603,0.63028,0.64259,0.26984,0.34933,0.10924,0.65314,0.18048,0.40082,0.54483,0.34933,0.26494,0.24943,0.14553,0.04212,0.20824,0.26494
1,77,0.4736,0.33776,0.4587,0.52082,0.47194,0.29785,0.28233,0.13526,0.63028,0.64083,0.22226,0.3977,0.11121,0.63379,0.17454,0.40552,0.49875,0.3977,0.26738,0.23224,0.14909,0.05569,0.24362,0.26738
1,78,0.43909,0.30182,0.44071,0.56559,0.45706,0.29261,0.34933,0.21681,0.63379,0.64083,0.27729,0.44396,0.1067,0.56559,0.16869,0.38685,0.46035,0.44396,0.28233,0.22446,0.15638,0.05097,0.27355,0.28233
1,79,0.40709,0.3392,0.38839,0.63556,0.44071,0.27355,0.40238,0.26131,0.55001,0.71107,0.22889,0.49706,0.09444,0.67776,0.38685,0.64434,0.41183,0.49706,0.29132,0.18853,0.21037,0.06405,0.25771,0.29132
1,80,0.48697,0.5089,0.50382,0.60396,0.59696,0.34497,0.43909,0.46035,0.77681,0.80392,0.21037,0.68127,0.11391,0.75622,0.52765,0.64083,0.68654,0.68127,0.30316,0.15917,0.23789,0.06716,0.07705,0.30316
1,81,0.41183,0.47527,0.48529,0.45542,0.63907,0.34642,0.24594,0.60921,0.60046,0.78363,0.25414,0.63379,0.15271,0.72503,0.53623,0.53795,0.67073,0.63379,0.19569,0.09196,0.24594,0,0.01256,0.19569
1,82,0.34063,0.38839,0.44234,0.29392,0.57428,0.27604,0.10366,0.60921,0.35815,0.7424,0.29261,0.52252,0.20192,0.63028,0.56906,0.46696,0.5089,0.52252,0.21037,0.02916,0.25652,0,0,0.21037
1,83,0.3126,0.30988,0.4071,0.19569,0.46365,0.20507,0.02508,0.52765,0.1865,0.71282,0.27729,0.40395,0.25891,0.54139,0.63555,0.42778,0.34787,0.40395,0.1855,0.00047,0.27479,0.02107,0.00047,0.1855
1,84,0.3167,0.2471,0.39148,0.15917,0.36112,0.15638,0,0.41818,0.10192,0.70582,0.18048,0.29522,0.30988,0.47693,0.69707,0.42297,0.24247,0.29522,0.11255,0.00604,0.25178,0.07009,0.00395,0.11255
1,85,0.35226,0.19364,0.41818,0.15454,0.30449,0.13278,0,0.28873,0.08099,0.7198,0.09344,0.23449,0.34207,0.44722,0.75105,0.48361,0.18148,0.23449,0.05178,0.00395,0.23112,0.09003,0.01529,0.05178
1,86,0.41342,0.14553,0.46696,0.16105,0.27355,0.12332,0,0.21573,0.08195,0.73373,0.06004,0.22226,0.34497,0.45213,0.81562,0.61097,0.1518,0.22226,0,0,0.18248,0.09196,0.06004,0
1,87,0.4736,0.14291,0.50212,0.18449,0.25533,0.11814,0,0.20402,0.09596,0.74067,0.05097,0.23789,0.33206,0.492,0.87561,0.76654,0.14204,0.23789,0,0,0.15917,0.09003,0.08386,0
1,88,0.514,0.21144,0.52765,0.22226,0.23562,0.1196,0,0.25533,0.12182,0.74586,0.06716,0.27107,0.33776,0.58124,0.9136,0.91604,0.13946,0.27107,0,0.01346,0.14999,0.09294,0.09913,0
1,89,0.49537,0.35815,0.53279,0.28361,0.20192,0.14032,0,0.3005,0.16869,0.74759,0.09245,0.3701,0.35373,0.69356,0.93398,0.97932,0.14642,0.3701,0,0,0.16011,0.10486,0.11887,0
1,90,0.49537,0.54139,0.54828,0.42618,0.19159,0.18853,0,0.34207,0.25414,0.74067,0.12718,0.53795,0.44234,0.78533,0.86667,0.98623,0.17948,0.53795,0.02712,0,0.19057,0.12718,0.16772,0.02712
1,91,0.5089,0.51911,0.55001,0.62325,0.20824,0.24943,0,0.34642,0.43261,0.70232,0.22007,0.60746,0.49369,0.85749,0.75795,0.9729,0.20613,0.60746,0.12033,0.06716,0.23676,0.09444,0.30182,0.12033
1,92,0.5089,0.3552,0.53451,0.68478,0.23336,0.29002,0.03018,0.30449,0.58822,0.69882,0.32783,0.6215,0.46531,0.92536,0.63907,0.92759,0.1988,0.6215,0.2093,0.13861,0.28616,0.05569,0.53108,0.2093
1,93,0.49369,0.29392,0.52765,0.70232,0.29654,0.31124,0.1067,0.2471,0.64786,0.69005,0.3977,0.57602,0.42297,0.97969,0.48027,0.79887,0.16294,0.57602,0.21681,0.27355,0.32924,0.03018,0.63907,0.21681
1,94,0.44722,0.31124,0.52594,0.73546,0.42618,0.32783,0.17355,0.15917,0.65842,0.68654,0.41659,0.51911,0.39614,0.99215,0.36112,0.64259,0.11391,0.51911,0.24362,0.39614,0.35815,0.08002,0.42137,0.24362
1,95,0.39148,0.41025,0.51911,0.78533,0.46862,0.32085,0.18348,0.07447,0.66545,0.676,0.37463,0.46365,0.39303,0.98278,0.25891,0.53795,0.097,0.46365,0.26373,0.35815,0.37767,0.17355,0.3656,0.26373
1,96,0.3392,0.56559,0.5106,0.78022,0.50043,0.29132,0.1658,0,0.67424,0.71631,0.28233,0.42457,0.41183,0.93294,0.17355,0.492,0.19569,0.42457,0.27729,0.29392,0.38225,0.32363,0.30853,0.27729
1,97,0.32643,0.55692,0.49537,0.6549,0.62852,0.26131,0.15362,0,0.66897,0.76483,0.25296,0.40082,0.40552,0.84175,0.12797,0.45213,0.55865,0.40082,0.29261,0.22007,0.35226,0.44886,0.30316,0.29261
1,98,0.3641,0.48194,0.48194,0.59171,0.58648,0.23903,0.15917,0,0.66018,0.79211,0.23562,0.34787,0.29785,0.8056,0.13116,0.47693,0.70407,0.34787,0.24132,0.23903,0.30988,0.54139,0.29785,0.24132
1,99,0.40082,0.44396,0.4736,0.58473,0.58648,0.21037,0.17651,0,0.65138,0.71282,0.20192,0.30988,0.16484,0.77852,0.18048,0.5106,0.52765,0.30988,0.17552,0.30853,0.27355,0.61974,0.3167,0.17552
1,100,0.39458,0.41659,0.462,0.5795,0.61097,0.1775,0.22666,0,0.6461,0.62325,0.18348,0.26494,0.14553,0.76826,0.23789,0.55519,0.34787,0.26494,0.1658,0.26616,0.24017,0.59346,0.42939,0.1658
1,101,0.39148,0.43423,0.45706,0.54828,0.63907,0.16199,0.30583,0,0.64259,0.61097,0.16011,0.29261,0.19261,0.75278,0.27231,0.59171,0.36261,0.29261,0.16676,0.25891,0.20718,0.56212,0.44071,0.16676
1,102,0.38378,0.36709,0.43746,0.55519,0.61097,0.17651,0.33776,0.05416,0.63555,0.55346,0.14291,0.28107,0.26131,0.7198,0.30316,0.61974,0.35963,0.28107,0.16772,0.22666,0.1865,0.57428,0.46531,0.16772
1,103,0.37615,0.40867,0.37767,0.66897,0.52082,0.16676,0.35226,0.07904,0.47194,0.6883,0.13197,0.46365,0.30182,0.85283,0.66721,0.85749,0.32924,0.46365,0.16389,0.17257,0.19984,0.59346,0.3552,0.16389
1,104,0.62501,0.58822,0.50382,0.63028,0.70757,0.21037,0.37767,0.07953,0.55346,0.81396,0.22335,0.75105,0.52594,0.95814,0.81229,0.84175,0.4587,0.75105,0.14909,0.1658,0.2093,0.41659,0.18148,0.14909
1,105,0.64259,0.58648,0.46531,0.50382,0.68654,0.21251,0.26252,0.08099,0.38994,0.75622,0.29785,0.77852,0.54483,0.94545,0.72677,0.70932,0.40238,0.77852,0.10426,0.12182,0.20297,0.29132,0.30853,0.10426
1,106,0.5708,0.5106,0.41342,0.38378,0.52937,0.18449,0.13525,0.07394,0.1518,0.68303,0.29392,0.70232,0.48864,0.91961,0.63204,0.60746,0.3126,0.70232,0.09147,0.03526,0.23224,0.45542,0.3656,0.09147
1,107,0.49874,0.43909,0.3641,0.29132,0.35667,0.16105,0.07122,0.05718,0.02008,0.61974,0.2471,0.58648,0.47194,0.86211,0.57254,0.55865,0.24594,0.58648,0.06594,0,0.27729,0.46862,0.32503,0.06594
1,108,0.431,0.38839,0.32783,0.25891,0.23224,0.15638,0,0.05791,0,0.5795,0.18348,0.45706,0.54828,0.7955,0.54139,0.55346,0.22777,0.45706,0.00395,0.11055,0.3126,0.39148,0.25533,0.00395
1,109,0.40082,0.37161,0.30449,0.25771,0.16676,0.16772,0,0.07232,0,0.58648,0.10924,0.35373,0.63555,0.75622,0.54828,0.60046,0.25296,0.35373,0,0.18148,0.31396,0.33491,0.19776,0
1,110,0.41025,0.36859,0.29785,0.26373,0.13197,0.19984,0,0.09099,0,0.62325,0.04581,0.29917,0.67073,0.76311,0.59346,0.68478,0.26011,0.29917,0,0.2471,0.37161,0.28616,0.1658,0
1,111,0.44722,0.38531,0.31533,0.29132,0.1153,0.24362,0,0.1196,0,0.67073,0,0.29392,0.63204,0.80895,0.64786,0.76826,0.22446,0.29392,0,0.29132,0.46531,0.23,0.14291,0
1,112,0.49537,0.43423,0.36112,0.3552,0.10989,0.26616,0,0.18048,0,0.72677,0,0.33348,0.52765,0.86818,0.70232,0.85283,0.18449,0.33348,0,0.28361,0.44234,0.18248,0.11055,0
1,113,0.53108,0.48529,0.415,0.462,0.12332,0.26984,0,0.26616,0,0.77168,0,0.42137,0.44234,0.90987,0.73199,0.91961,0.15638,0.42137,0.00532,0.23903,0.37615,0.18048,0.07705,0.00532
1,114,0.58822,0.53967,0.5174,0.60221,0.17257,0.29522,0.00098,0.36859,0,0.7955,0,0.50043,0.40082,0.88144,0.71107,0.95293,0.13197,0.50043,0.07855,0.27231,0.38685,0.28873,0,0.07855
1,115,0.58473,0.56733,0.56385,0.7545,0.26616,0.34207,0.09596,0.35667,0,0.76311,0,0.52252,0.35815,0.85126,0.68303,0.94274,0.1196,0.52252,0.1146,0.28233,0.42618,0.36709,0.00532,0.1146
1,116,0.54656,0.5123,0.55519,0.80728,0.37767,0.37463,0.21037,0.25061,0,0.71456,0,0.50043,0.28361,0.78872,0.63555,0.93398,0.10924,0.50043,0.13116,0.18449,0.44886,0.38225,0.01717,0.13116
1,117,0.4786,0.46862,0.5174,0.82553,0.49032,0.37919,0.35667,0.1855,0,0.69882,0.07066,0.43746,0.28361,0.94274,0.58299,0.81396,0.10426,0.43746,0.10733,0.09596,0.51911,0.44886,0.09294,0.10733
1,118,0.41659,0.52252,0.49537,0.83207,0.56385,0.33633,0.47028,0.15917,0,0.69707,0.15089,0.37161,0.25891,0.99011,0.46365,0.65842,0.10366,0.37161,0.10079,0.07551,0.61097,0.5123,0.43423,0.10079
1,119,0.36859,0.6549,0.47693,0.84175,0.59696,0.30182,0.47527,0.13443,0.02107,0.73025,0.1855,0.31396,0.23903,0.98214,0.35226,0.5708,0.11323,0.31396,0.12409,0.06594,0.6883,0.55001,0.68654,0.12409
1,120,0.35667,0.66369,0.46035,0.91236,0.56733,0.30988,0.42457,0.09344,0.05178,0.76483,0.16676,0.29261,0.2093,0.90733,0.26494,0.5174,0.17948,0.29261,0.1473,0.03923,0.76483,0.57776,0.40395,0.1473
1,121,0.35963,0.58648,0.44886,0.9671,0.52082,0.27107,0.45213,0.03425,0.08002,0.82553,0.16676,0.29654,0.17552,0.84494,0.23112,0.49875,0.38531,0.29654,0.15454,0.04845,0.77168,0.59346,0.30316,0.15454
1,122,0.35079,0.54139,0.46365,0.96932,0.48027,0.18853,0.46862,0,0.11323,0.84969,0.20088,0.30182,0.15271,0.7955,0.24478,0.4736,0.65666,0.30182,0.14909,0.06655,0.85439,0.59171,0.32363,0.14909
1,123,0.34933,0.50382,0.46531,0.97432,0.43423,0.13946,0.54139,0,0.16676,0.85594,0.25061,0.31533,0.14909,0.7424,0.22889,0.40238,0.77339,0.31533,0.15546,0.07953,0.94182,0.60046,0.34207,0.15546
1,124,0.33776,0.47527,0.47028,0.96349,0.41818,0.13278,0.66721,0,0.23676,0.85904,0.24362,0.32924,0.17454,0.64434,0.21465,0.38072,0.71806,0.32924,0.17849,0.09344,0.94274,0.62852,0.3552,0.17849
1,125,0.38994,0.44396,0.46365,0.95135,0.4587,0.1473,0.67073,0,0.33206,0.83854,0.15454,0.35963,0.22666,0.53451,0.20507,0.34207,0.60221,0.35963,0.27479,0.1025,0.94274,0.676,0.35226,0.27479
1,126,0.38685,0.41978,0.4587,0.94545,0.45542,0.1658,0.62501,0.0634,0.34063,0.84175,0.07232,0.42137,0.27855,0.50382,0.17454,0.30449,0.492,0.42137,0.22777,0.12562,0.97192,0.71631,0.3552,0.22777
1,127,0.36112,0.47194,0.41183,0.98649,0.44234,0.15362,0.65138,0.07904,0.32643,0.91236,0.05178,0.63731,0.31808,0.59521,0.23112,0.45706,0.41659,0.63731,0.20088,0.15546,0.97894,0.65842,0.3552,0.20088
1,128,0.55174,0.65666,0.57776,0.9972,0.4786,0.1775,0.7545,0.12485,0.29261,0.97039,0.1146,0.88854,0.53795,0.90987,0.26252,0.492,0.44722,0.88854,0.1775,0.23112,0.98181,0.48864,0.21573,0.1775
1,129,0.58473,0.67424,0.54311,0.99712,0.43423,0.20297,0.5708,0.2179,0.36709,0.94719,0.17355,0.92976,0.62501,0.92648,0.20192,0.43585,0.34497,0.92976,0.07705,0.24362,0.9729,0.24826,0.15454,0.07705
1,130,0.56212,0.63907,0.48027,0.98841,0.36859,0.19159,0.36709,0.26011,0.27729,0.90345,0.19569,0.87999,0.58299,0.9136,0.16199,0.42778,0.21681,0.87999,0.09648,0.36859,0.97192,0.1146,0.42457,0.09648
1,131,0.54656,0.61272,0.43261,0.95954,0.31808,0.16676,0.21898,0.26616,0.15454,0.86058,0.20192,0.75622,0.5106,0.89949,0.14465,0.47693,0.13609,0.75622,0.09968,0.45706,0.95884,0.05718,0.70757,0.09968
1,132,0.53966,0.60396,0.41342,0.89815,0.28873,0.14378,0.12876,0.25533,0.09051,0.81894,0.1988,0.61272,0.4587,0.89133,0.13525,0.56559,0.10079,0.61272,0.10192,0.462,0.91604,0,0.56212,0.10192
1,133,0.57602,0.64786,0.43909,0.85439,0.26738,0.12409,0.11055,0.23676,0.0493,0.82224,0.1865,0.47194,0.46531,0.88854,0.13197,0.67424,0.09648,0.47194,0.10023,0.46035,0.87999,0,0.32085,0.10023
1,134,0.63555,0.71631,0.492,0.85904,0.25414,0.10796,0.12485,0.20507,0.00755,0.84015,0.1658,0.38072,0.5106,0.88572,0.13525,0.77339,0.10079,0.38072,0.10989,0.46696,0.86667,0,0.16389,0.10989
1,135,0.67951,0.76826,0.55865,0.89271,0.25061,0.10023,0.15638,0.1716,0,0.84653,0.14378,0.3641,0.55865,0.87117,0.13693,0.85749,0.10308,0.3641,0.11887,0.5123,0.83044,0,0.08575,0.11887
1,136,0.6883,0.78533,0.62501,0.93993,0.24826,0.09913,0.19984,0.14032,0,0.84175,0.17849,0.41025,0.55346,0.84969,0.14291,0.92536,0.10989,0.41025,0.10989,0.61974,0.78533,0,0.06594,0.10989
1,137,0.62852,0.76826,0.64434,0.96878,0.25652,0.1086,0.25061,0.11255,0.00098,0.84653,0.25061,0.49706,0.50551,0.83693,0.1865,0.96349,0.12562,0.49706,0.09968,0.72503,0.84175,0.02814,0.07551,0.09968
1,138,0.52765,0.67073,0.61798,0.95743,0.28744,0.13443,0.31124,0.10924,0.05569,0.87117,0.28488,0.54828,0.50721,0.81728,0.36261,0.97142,0.15731,0.54828,0.13278,0.84494,0.91112,0.07066,0.13777,0.13278
1,139,0.4587,0.53279,0.58299,0.91113,0.35963,0.17948,0.47693,0.17651,0.08002,0.89815,0.25533,0.60396,0.50382,0.78703,0.70407,0.95523,0.19364,0.60396,0.17948,0.91961,0.91724,0.1153,0.3167,0.17948
1,140,0.42137,0.49706,0.53623,0.89271,0.41818,0.22889,0.61447,0.26738,0.12485,0.85283,0.22446,0.59696,0.50551,0.85439,0.80728,0.92424,0.20088,0.59696,0.1775,0.92976,0.89681,0.19364,0.3977,0.1775
1,141,0.40867,0.55519,0.49369,0.92536,0.50721,0.26011,0.59521,0.30718,0.21144,0.78363,0.22889,0.52937,0.47527,0.98042,0.73546,0.88854,0.16199,0.52937,0.18752,0.935,0.84811,0.15362,0.38531,0.18752
1,142,0.39614,0.6549,0.46696,0.95135,0.64962,0.27355,0.59346,0.25414,0.3005,0.80895,0.23676,0.47194,0.43909,0.99619,0.56385,0.81728,0.1067,0.47194,0.1988,0.89409,0.82881,0.17849,0.36859,0.1988
1,143,0.3701,0.73025,0.44396,0.92536,0.72677,0.27729,0.65314,0.13693,0.35226,0.86211,0.27604,0.45213,0.415,0.98571,0.431,0.72329,0.07953,0.45213,0.2093,0.80392,0.82224,0.3005,0.38994,0.2093
1,144,0.35372,0.70932,0.41978,0.91236,0.72329,0.27479,0.67249,0.01437,0.39148,0.89949,0.26131,0.42778,0.40867,0.92759,0.33776,0.61798,0.09245,0.42778,0.21898,0.70232,0.76139,0.38839,0.46531,0.21898
1,145,0.35226,0.61447,0.40238,0.85904,0.67073,0.2798,0.71631,0.00755,0.43585,0.88994,0.26373,0.36859,0.42137,0.81894,0.27604,0.53795,0.16676,0.36859,0.24594,0.61272,0.68127,0.37919,0.39926,0.24594
1,146,0.36261,0.56559,0.38072,0.79887,0.57254,0.25771,0.84494,0.14999,0.52082,0.89815,0.30182,0.38994,0.40867,0.77168,0.28361,0.48361,0.35667,0.38994,0.26616,0.54483,0.59871,0.37463,0.46862,0.26616
1,147,0.38378,0.54311,0.37615,0.69006,0.47693,0.20402,0.82224,0.36112,0.5795,0.92195,0.31946,0.4505,0.40082,0.72851,0.2093,0.44396,0.56385,0.4505,0.25533,0.46365,0.52423,0.37161,0.37767,0.25533
1,148,0.40867,0.50382,0.39614,0.514,0.42618,0.14909,0.76311,0.4786,0.63204,0.89815,0.32363,0.50043,0.40238,0.69531,0.19364,0.46862,0.61097,0.50043,0.2179,0.41978,0.46862,0.39303,0.35815,0.2179
1,149,0.41818,0.42457,0.3701,0.45213,0.41818,0.12257,0.67249,0.52937,0.67073,0.84811,0.32363,0.46365,0.42457,0.71107,0.17948,0.48864,0.59171,0.46365,0.18752,0.42137,0.43585,0.42297,0.30718,0.18752
1,150,0.41659,0.45706,0.34933,0.46696,0.41978,0.11742,0.59171,0.53279,0.70582,0.80895,0.31533,0.4505,0.43423,0.71631,0.15089,0.46531,0.59171,0.4505,0.33206,0.43746,0.41025,0.50043,0.25414,0.33206
1,151,0.3552,0.48194,0.33491,0.64963,0.39614,0.1196,0.6918,0.37919,0.66897,0.89545,0.33065,0.52937,0.53623,0.80224,0.22007,0.79887,0.56212,0.52937,0.44234,0.43423,0.34642,0.54828,0.20507,0.44234
1,152,0.58648,0.60571,0.49032,0.95371,0.39148,0.17062,0.95743,0.50721,0.89815,0.96932,0.46365,0.75105,0.68127,0.93083,0.21037,0.93701,0.6883,0.75105,0.30316,0.41183,0.25178,0.41025,0.15454,0.30316
1,153,0.7938,0.63379,0.54828,0.9897,0.29654,0.20613,0.96878,0.50212,0.87266,0.96156,0.58124,0.72329,0.56559,0.88572,0.15824,0.87414,0.73025,0.72329,0.16389,0.28107,0.17062,0.15271,0.42939,0.16389
1,154,0.83369,0.58648,0.5174,0.99373,0.16676,0.1988,0.91604,0.3167,0.66721,0.90475,0.58648,0.61097,0.44396,0.78192,0.12033,0.79211,0.56559,0.61097,0.22335,0.15271,0.13946,0.14118,0.59171,0.22335
1,155,0.84494,0.52937,0.43423,0.99031,0.08339,0.17948,0.80224,0.23224,0.42137,0.82717,0.52252,0.50551,0.36709,0.66721,0.1025,0.72677,0.3656,0.50551,0.43909,0.16484,0.1264,0.15454,0.58299,0.43909
1,156,0.84969,0.4786,0.35373,0.98401,0.02508,0.16105,0.67952,0.21465,0.24362,0.74067,0.39614,0.41659,0.32085,0.56733,0.10079,0.68303,0.26861,0.41659,0.57602,0.28361,0.11188,0.14553,0.53967,0.57602
1,157,0.85439,0.462,0.32224,0.98278,0.01813,0.15917,0.5795,0.21681,0.16199,0.68127,0.26984,0.37312,0.29522,0.53108,0.10486,0.676,0.23676,0.37312,0.64434,0.27604,0.09394,0.15731,0.54311,0.64434
1,158,0.83854,0.4786,0.31946,0.98571,0.05178,0.17355,0.53795,0.20824,0.13278,0.65138,0.20718,0.37463,0.27604,0.55346,0.11255,0.70582,0.20507,0.37463,0.67776,0.25178,0.06468,0.15824,0.56906,0.67776
1,159,0.80895,0.50721,0.34642,0.98772,0.07755,0.19057,0.54656,0.19364,0.1336,0.64434,0.22007,0.41978,0.26738,0.59871,0.12332,0.76311,0.13525,0.41978,0.6461,0.21251,0.00395,0.13443,0.61798,0.6461
1,160,0.73893,0.55519,0.38685,0.99198,0.09913,0.21144,0.61974,0.18248,0.15362,0.66545,0.26131,0.50212,0.28233,0.66369,0.15824,0.83207,0.08339,0.50212,0.55001,0.26616,0,0.11671,0.676,0.55001
1,161,0.57776,0.60396,0.41025,0.99577,0.13693,0.22556,0.74586,0.15546,0.19984,0.72329,0.32363,0.60571,0.34063,0.73199,0.22777,0.89271,0.04491,0.60571,0.43909,0.4786,0,0.16772,0.63204,0.43909
1,162,0.44233,0.60746,0.45377,0.99387,0.17948,0.27479,0.86818,0.12033,0.29392,0.81728,0.52082,0.67073,0.50382,0.7545,0.43585,0.91112,0.05097,0.67073,0.42939,0.64786,0,0.25891,0.58648,0.42939
1,163,0.42457,0.56385,0.44396,0.98371,0.23,0.3167,0.90475,0.12107,0.48529,0.85749,0.83207,0.64434,0.61798,0.79718,0.81562,0.79718,0.09196,0.64434,0.3005,0.56039,0.00532,0.39614,0.65138,0.3005
1,164,0.36112,0.47527,0.39614,0.96285,0.25178,0.33776,0.87708,0.15917,0.68478,0.7955,0.90475,0.61447,0.63731,0.83693,0.90733,0.71456,0.1153,0.61447,0.18148,0.42618,0.06468,0.48194,0.70932,0.18148
1,165,0.34063,0.48194,0.36709,0.89271,0.25533,0.35667,0.83044,0.20718,0.7424,0.73546,0.73546,0.56039,0.56733,0.91112,0.79887,0.60221,0.10079,0.56039,0.14204,0.31396,0.09344,0.44559,0.70232,0.14204
1,166,0.32783,0.52252,0.34642,0.79887,0.26011,0.37312,0.81728,0.22226,0.76997,0.73373,0.61798,0.48529,0.53279,0.91843,0.61272,0.55346,0.07232,0.48529,0.17257,0.25771,0.12485,0.43261,0.62852,0.17257
1,167,0.3392,0.58124,0.32363,0.676,0.27479,0.37312,0.79211,0.16105,0.82059,0.78703,0.57254,0.45542,0.50382,0.86211,0.42297,0.49032,0.00604,0.45542,0.20824,0.23449,0.17355,0.45377,0.54656,0.20824
1,168,0.34933,0.60221,0.30182,0.57776,0.30449,0.35815,0.84811,0.0867,0.79042,0.85126,0.53795,0.34787,0.47028,0.71282,0.29522,0.43585,0,0.34787,0.23224,0.3005,0.22007,0.4736,0.50721,0.23224
2,1,0.38225,0.61447,0.27355,0.92976,0.07654,0.32085,0.84811,0.94804,0.65842,0.74932,0.87708,0.84811,0.3641,0.58473,0.097,0.39926,0.63555,0.84811,0.39148,0.12876,0.62325,0.60396,0.35226,0.39148
2,2,0.37161,0.56559,0.25178,0.91724,0.09444,0.32224,0.83531,0.96473,0.62325,0.72503,0.90345,0.85904,0.37919,0.61097,0.06835,0.42778,0.6549,0.85904,0.31946,0.10608,0.48529,0.74413,0.35226,0.31946
2,3,0.35963,0.54311,0.19466,0.9231,0.12797,0.27855,0.78533,0.92759,0.59171,0.67776,0.94804,0.87561,0.41183,0.59871,0.00915,0.44396,0.66194,0.87561,0.33065,0.12257,0.40238,0.78533,0.37161,0.33065
2,4,0.3701,0.50382,0.13609,0.90987,0.1775,0.20824,0.70407,0.89409,0.56039,0.71282,0.95671,0.90345,0.40867,0.60396,0,0.50212,0.70407,0.90345,0.30182,0.21681,0.28744,0.75622,0.39303,0.30182
2,5,0.37161,0.42457,0.10733,0.90082,0.22226,0.1716,0.56039,0.8843,0.54139,0.71806,0.96473,0.90733,0.40552,0.56906,0,0.50382,0.67424,0.90733,0.28488,0.39148,0.30988,0.68654,0.41978,0.28488
2,6,0.37767,0.45706,0.09806,0.89545,0.22226,0.21681,0.5123,0.87854,0.51911,0.69882,0.97192,0.9136,0.37615,0.58822,0.03222,0.5174,0.63028,0.9136,0.25414,0.47527,0.37312,0.60571,0.46035,0.25414
2,7,0.41659,0.48194,0.08243,0.97432,0.10796,0.23,0.55001,0.92424,0.43261,0.80392,0.99807,0.95054,0.29785,0.70932,0.07447,0.75105,0.52937,0.95054,0.1865,0.47527,0.38531,0.45542,0.4786,0.1865
2,8,0.61447,0.60571,0.06776,0.96767,0.07603,0.21037,0.90475,0.99712,0.55001,0.9136,1,0.98371,0.45706,0.8056,0.27604,0.7545,0.57602,0.98371,0.14118,0.52252,0.45706,0.14642,0.24943,0.14118
2,9,0.61974,0.63379,0.06004,0.9136,0.01082,0.20824,0.96878,0.99649,0.56906,0.91961,1,0.9895,0.66545,0.75967,0.35667,0.63731,0.54139,0.9895,0.14819,0.63907,0.48194,0.07232,0.37919,0.14819
2,10,0.61272,0.58648,0.06776,0.80056,0,0.18248,0.96878,0.97522,0.38072,0.91112,1,0.98597,0.76826,0.63028,0.20718,0.50721,0.42137,0.98597,0.14118,0.9136,0.4505,0.05863,0.30316,0.14118
2,11,0.62676,0.52937,0.07805,0.66194,0,0.17651,0.94972,0.87266,0.2093,0.89949,0.99215,0.96473,0.78192,0.47527,0.09344,0.41818,0.28744,0.96473,0.14553,0.97522,0.4505,0.09003,0.21465,0.14553
2,12,0.66194,0.4786,0.08717,0.53451,0,0.16105,0.91961,0.73373,0.1153,0.89681,0.94719,0.91961,0.7751,0.34207,0.00532,0.38378,0.1988,0.91961,0.1336,0.98516,0.45213,0.11121,0.14032,0.1336
2,13,0.6918,0.462,0.09913,0.47527,0,0.14291,0.87561,0.6461,0.09344,0.90987,0.80056,0.87561,0.77852,0.25771,0,0.41025,0.18449,0.87561,0.12182,0.97932,0.514,0.1146,0.10796,0.12182
2,14,0.72154,0.4786,0.12107,0.46035,0,0.15362,0.83207,0.58997,0.08907,0.93398,0.65138,0.86818,0.78703,0.21358,0,0.47693,0.2093,0.86818,0.09003,0.96156,0.41183,0.10192,0.10486,0.09003
2,15,0.75967,0.50721,0.14291,0.47194,0,0.20402,0.82881,0.5708,0.08433,0.95214,0.54483,0.89681,0.76826,0.20088,0,0.58124,0.23449,0.89681,0.06405,0.95884,0.39303,0.23562,0.12485,0.06405
2,16,0.78363,0.55519,0.15917,0.5123,0,0.24017,0.86058,0.59521,0.07755,0.96089,0.48361,0.94088,0.68654,0.22116,0,0.70932,0.26252,0.94088,0,0.96533,0.32924,0.35815,0.1855,0
2,17,0.75622,0.60396,0.17062,0.58473,0,0.25533,0.87999,0.66545,0.07654,0.96221,0.45542,0.96986,0.56733,0.27107,0.05014,0.82881,0.29261,0.96986,0.02712,0.96411,0.32085,0.31533,0.28744,0.02712
2,18,0.60921,0.60746,0.19057,0.65842,0,0.30449,0.86667,0.76139,0.09196,0.935,0.4505,0.96823,0.5123,0.40867,0.10023,0.89949,0.33491,0.96823,0.06531,0.96767,0.39458,0.23903,0.37463,0.06531
2,19,0.49369,0.56385,0.18853,0.73199,0.00268,0.34207,0.84811,0.90733,0.09147,0.84015,0.514,0.94632,0.47194,0.64434,0.13861,0.81229,0.43261,0.94632,0.10192,0.95597,0.35963,0.33065,0.76826,0.10192
2,20,0.47693,0.47527,0.18248,0.78363,0.00834,0.35963,0.81396,0.86516,0.09596,0.78533,0.63555,0.96156,0.48361,0.72851,0.15362,0.80392,0.5106,0.96156,0.2093,0.91236,0.35667,0.18248,0.83854,0.2093
2,21,0.44071,0.48194,0.18348,0.85126,0,0.35815,0.71631,0.89681,0.12332,0.73025,0.79718,0.96411,0.52765,0.71806,0.16199,0.78703,0.56212,0.96411,0.34787,0.81229,0.32924,0.08528,0.66194,0.34787
2,22,0.43909,0.52252,0.18752,0.98078,0,0.36112,0.66018,0.85594,0.21037,0.70932,0.89681,0.94088,0.52082,0.75622,0.15638,0.67424,0.63555,0.94088,0.34207,0.62676,0.32783,0.044,0.55001,0.34207
2,23,0.40395,0.58124,0.1865,0.99858,0,0.34787,0.65314,0.93701,0.28744,0.74067,0.82553,0.92079,0.52765,0.74413,0.12033,0.56559,0.73025,0.92079,0.22556,0.4587,0.45706,0.22007,0.52765,0.22556
2,24,0.37615,0.60221,0.18752,0.9907,0,0.33348,0.64083,0.96156,0.33633,0.80728,0.67073,0.89409,0.47194,0.66721,0.097,0.49875,0.82059,0.89409,0.19673,0.30718,0.61974,0.18853,0.5089,0.19673
2,25,0.3656,0.52082,0.18853,0.96349,0,0.35373,0.6918,0.94972,0.37767,0.83369,0.6549,0.87561,0.44071,0.56733,0.08243,0.46035,0.7938,0.87561,0.24943,0.2179,0.59696,0.1025,0.49032,0.24943
2,26,0.36709,0.43585,0.18752,0.94889,0,0.38839,0.79211,0.92079,0.40395,0.88144,0.78022,0.86818,0.47028,0.60046,0.07232,0.43909,0.60571,0.86818,0.29002,0.22335,0.59696,0.11887,0.4786,0.29002
2,27,0.37312,0.39926,0.18048,0.94719,0,0.37615,0.82389,0.84811,0.415,0.86968,0.87414,0.87266,0.4587,0.56385,0.07551,0.49032,0.55001,0.87266,0.3167,0.25533,0.57254,0.09545,0.4736,0.3167
2,28,0.38685,0.38378,0.16484,0.89815,0,0.3126,0.83044,0.75967,0.43585,0.79211,0.83207,0.87414,0.51911,0.51911,0.08433,0.50043,0.54656,0.87414,0.32363,0.28488,0.54483,0.15917,0.48864,0.32363
2,29,0.41183,0.3701,0.16772,0.84811,0.0191,0.25178,0.80392,0.67073,0.45213,0.79211,0.92195,0.88572,0.51911,0.5089,0.09051,0.50382,0.4736,0.88572,0.31533,0.29522,0.56385,0.2471,0.5157,0.31533
2,30,0.44071,0.34063,0.19466,0.82389,0.06208,0.20718,0.77168,0.59346,0.47028,0.6883,0.9729,0.88287,0.415,0.48529,0.08812,0.50382,0.39303,0.88287,0.28616,0.27855,0.60571,0.2093,0.53623,0.28616
2,31,0.43423,0.37463,0.16869,0.96823,0.02814,0.16105,0.83693,0.60921,0.38685,0.81062,0.99519,0.93799,0.30316,0.49706,0.06594,0.62325,0.33633,0.93799,0.2471,0.22226,0.66369,0.16389,0.52252,0.2471
2,32,0.65666,0.50551,0.17257,0.9918,0,0.16105,0.99456,0.93897,0.67776,0.92424,1,0.97694,0.48027,0.53795,0.14999,0.56385,0.63379,0.97694,0.24017,0.13278,0.70757,0.21465,0.55174,0.24017
2,33,0.67776,0.44396,0.15546,0.98795,0,0.17062,0.99695,0.98341,0.66194,0.89681,0.99957,0.98649,0.60046,0.4786,0.28873,0.43585,0.73546,0.98649,0.11671,0.07232,0.61798,0.24017,0.89681,0.11671
2,34,0.65314,0.35815,0.14291,0.96986,0,0.15546,0.98488,0.98543,0.45213,0.85283,0.99126,0.9846,0.63379,0.34787,0.3701,0.34207,0.69531,0.9846,0.06468,0.03324,0.52937,0.22007,0.86058,0.06468
2,35,0.63731,0.29522,0.13946,0.935,0,0.13278,0.91961,0.97776,0.24362,0.8056,0.94456,0.9729,0.66897,0.21251,0.38531,0.3005,0.60746,0.9729,0.14118,0,0.53795,0.19261,0.72851,0.14118
2,36,0.6461,0.25533,0.12955,0.88288,0.04307,0.10608,0.81229,0.96089,0.12182,0.76654,0.82059,0.96022,0.70232,0.11814,0.37161,0.3005,0.49875,0.96022,0.10733,0,0.60046,0.28744,0.58299,0.10733
2,37,0.6883,0.24478,0.12332,0.84015,0.07447,0.08339,0.74586,0.93189,0.08243,0.7545,0.72329,0.96156,0.69356,0.08764,0.38072,0.33206,0.39148,0.96156,0.16011,0,0.50043,0.37767,0.5795,0.16011
2,38,0.75278,0.25891,0.12485,0.82224,0.09444,0.07603,0.72851,0.89133,0.07232,0.7751,0.676,0.97338,0.67249,0.09444,0.43746,0.39614,0.32085,0.97338,0.20613,0,0.63028,0.37919,0.66897,0.20613
2,39,0.80392,0.29002,0.14032,0.82553,0.10733,0.08528,0.72851,0.86516,0.07603,0.80728,0.64259,0.98246,0.66018,0.12409,0.52594,0.492,0.29002,0.98246,0.25296,0,0.74413,0.32503,0.73199,0.25296
2,40,0.83369,0.34787,0.1716,0.84969,0.1025,0.11055,0.75105,0.87117,0.08339,0.83693,0.59696,0.98623,0.6549,0.17552,0.63379,0.62325,0.29654,0.98623,0.24247,0.00997,0.67424,0.32503,0.7545,0.24247
2,41,0.80055,0.44234,0.20192,0.8843,0.09196,0.15731,0.79887,0.89409,0.1067,0.86058,0.55692,0.9846,0.54483,0.25061,0.7198,0.76654,0.32085,0.9846,0.16869,0.07122,0.54828,0.3167,0.7198,0.16869
2,42,0.68127,0.52765,0.25771,0.8995,0.08291,0.21898,0.85439,0.87854,0.14291,0.82881,0.54311,0.95954,0.49875,0.39148,0.82717,0.88287,0.37312,0.95954,0.15362,0.15362,0.46531,0.34063,0.58648,0.15362
2,43,0.54656,0.49875,0.32363,0.89271,0.08433,0.29522,0.88994,0.87708,0.21573,0.69707,0.64083,0.91236,0.50043,0.59871,0.87708,0.83207,0.43746,0.91236,0.13946,0.28233,0.71282,0.35667,0.57602,0.13946
2,44,0.48697,0.43423,0.38225,0.91961,0.08481,0.34497,0.93799,0.82717,0.32643,0.64434,0.74586,0.88994,0.4587,0.6549,0.79887,0.90214,0.45542,0.88994,0.1855,0.35667,0.82553,0.4071,0.59346,0.1855
2,45,0.46696,0.40238,0.4587,0.98597,0.097,0.37919,0.98006,0.78703,0.40552,0.63555,0.84969,0.87117,0.46531,0.62676,0.62501,0.89949,0.48864,0.87117,0.19776,0.41342,0.87266,0.40238,0.5708,0.19776
2,46,0.45541,0.44071,0.5174,0.99507,0.16105,0.39926,0.98795,0.80728,0.41342,0.63204,0.84494,0.84811,0.48361,0.62325,0.50382,0.78703,0.55519,0.84811,0.1196,0.42297,0.86364,0.41818,0.63907,0.1196
2,47,0.44233,0.52082,0.57602,0.98649,0.28488,0.39926,0.99265,0.82389,0.39926,0.62676,0.75967,0.81062,0.48027,0.70407,0.4071,0.60746,0.60746,0.81062,0.0867,0.43585,0.94365,0.43909,0.53967,0.0867
2,48,0.44234,0.55519,0.56906,0.97385,0.16869,0.39614,0.99343,0.83044,0.37615,0.6461,0.78022,0.78872,0.47194,0.54139,0.3552,0.48194,0.6549,0.78872,0.10426,0.44886,0.99895,0.48361,0.56733,0.10426
2,49,0.47194,0.54656,0.53451,0.96022,0.08051,0.37767,0.9897,0.84175,0.36112,0.66721,0.84335,0.7955,0.45377,0.37919,0.34787,0.38378,0.62325,0.7955,0.1086,0.48027,0.94182,0.50043,0.56385,0.1086
2,50,0.44722,0.56039,0.49875,0.94274,0.12562,0.35226,0.9729,0.75967,0.39303,0.67073,0.87117,0.85126,0.40552,0.34207,0.32924,0.37767,0.53279,0.85126,0.10486,0.44234,0.95954,0.44396,0.46035,0.10486
2,51,0.48194,0.50551,0.48529,0.87854,0.21465,0.32783,0.94456,0.70932,0.46696,0.66018,0.91843,0.91236,0.3977,0.3167,0.32085,0.39303,0.45542,0.91236,0.12332,0.40395,0.99265,0.41659,0.33491,0.12332
2,52,0.431,0.44234,0.43909,0.88287,0.26494,0.30988,0.90214,0.66369,0.57428,0.64259,0.92976,0.95214,0.44071,0.30316,0.34497,0.40082,0.415,0.95214,0.14378,0.37312,0.99577,0.31124,0.28233,0.14378
2,53,0.43261,0.3701,0.38531,0.91724,0.30182,0.29785,0.84969,0.63379,0.63379,0.64083,0.92648,0.95597,0.47028,0.29392,0.38225,0.40552,0.42778,0.95597,0.12332,0.33206,0.99686,0.25533,0.28744,0.12332
2,54,0.43909,0.30316,0.34933,0.88573,0.29917,0.29261,0.82553,0.56039,0.64083,0.64083,0.96349,0.95743,0.46035,0.27729,0.38225,0.38685,0.45377,0.95743,0.1336,0.30583,1,0.23789,0.28233,0.1336
2,55,0.54311,0.32503,0.2798,0.97652,0.23224,0.27355,0.78872,0.56212,0.44396,0.71107,0.99609,0.97385,0.42457,0.31533,0.55001,0.64434,0.34787,0.97385,0.13861,0.26984,1,0.24132,0.26738,0.13861
2,56,0.81894,0.45213,0.33491,0.9895,0.2093,0.34497,0.93398,0.82881,0.63731,0.80392,1,0.99313,0.71107,0.42137,0.67952,0.64083,0.41183,0.99313,0.14032,0.22226,1,0.20507,0.11255,0.14032
2,57,0.76139,0.43423,0.37312,0.9897,0.23676,0.34642,0.98516,0.86818,0.7424,0.78363,1,0.99265,0.74067,0.3656,0.56733,0.53795,0.42939,0.99265,0.05934,0.20718,1,0.16869,0.10989,0.05934
2,58,0.61974,0.37161,0.38378,0.97566,0.25061,0.27604,0.97652,0.86516,0.62676,0.7424,0.99848,0.98371,0.71282,0.30988,0.46862,0.46696,0.37463,0.98371,0,0.23903,1,0.22666,0.08147,0
2,59,0.50382,0.31808,0.42618,0.93897,0.24247,0.20507,0.89681,0.84969,0.42297,0.71282,0.97855,0.95597,0.65666,0.28616,0.3977,0.42778,0.30583,0.95597,0,0.24478,1,0.21573,0.03222,0
2,60,0.42137,0.2798,0.49369,0.87117,0.23449,0.15638,0.70582,0.84494,0.25533,0.70582,0.88854,0.89815,0.60571,0.3005,0.33348,0.42297,0.24478,0.89815,0,0.22446,1,0.1855,0,0
2,61,0.40395,0.26616,0.56385,0.82225,0.21573,0.13278,0.52765,0.85439,0.16389,0.7198,0.75278,0.81562,0.57776,0.36112,0.31533,0.48361,0.20297,0.81562,0,0.24826,1,0.19159,0,0
2,62,0.44234,0.26861,0.59871,0.81728,0.17651,0.12332,0.44071,0.87708,0.12797,0.73373,0.6549,0.74413,0.56559,0.47194,0.35079,0.61097,0.1855,0.74413,0.06004,0.30853,1,0.16011,0,0.06004
2,63,0.53108,0.28744,0.61272,0.84176,0.13278,0.11814,0.42939,0.89409,0.12409,0.74067,0.58997,0.7198,0.61097,0.61974,0.44886,0.76654,0.18148,0.7198,0.10308,0.38994,1,0.11121,0,0.10308
2,64,0.63555,0.34352,0.59871,0.8843,0.097,0.1196,0.462,0.91843,0.13609,0.74586,0.54656,0.73546,0.676,0.76826,0.57776,0.91604,0.19057,0.73546,0.07603,0.492,1,0.08243,0,0.07603
2,65,0.69356,0.45706,0.54483,0.92536,0.08859,0.14032,0.50212,0.94719,0.15824,0.74759,0.52082,0.76139,0.63379,0.88287,0.64083,0.97932,0.20824,0.76139,0.05178,0.55346,1,0.07904,0,0.05178
2,66,0.63379,0.59346,0.50382,0.93398,0.07705,0.18853,0.60221,0.938,0.22556,0.74067,0.5174,0.83693,0.58997,0.90345,0.66369,0.98623,0.24362,0.83693,0.08717,0.68303,1,0.1264,0,0.08717
2,67,0.56733,0.58648,0.4736,0.9086,0.05014,0.24943,0.68654,0.91724,0.30988,0.70232,0.59346,0.93897,0.55865,0.84175,0.66018,0.9729,0.32924,0.93897,0.14642,0.90475,1,0.08147,0.05097,0.14642
2,68,0.54656,0.5174,0.41978,0.94182,0.0467,0.29002,0.6215,0.90605,0.43746,0.69882,0.65138,0.88572,0.53967,0.71456,0.60046,0.92759,0.39148,0.88572,0.1518,0.96089,1,0,0.29002,0.1518
2,69,0.52765,0.44722,0.39458,0.97338,0.04845,0.31124,0.52765,0.74067,0.52252,0.69005,0.7955,0.83854,0.54828,0.77168,0.44071,0.79887,0.43423,0.83854,0.15824,0.96022,1,0,0.64259,0.15824
2,70,0.53279,0.44396,0.38685,0.99704,0.044,0.32783,0.47693,0.67249,0.54311,0.68654,0.88572,0.81229,0.54311,0.92976,0.30853,0.64259,0.50212,0.81229,0.16105,0.91843,1,0,0.63731,0.16105
2,71,0.53795,0.49369,0.36112,0.98795,0.03018,0.32085,0.42939,0.65314,0.54139,0.676,0.87708,0.7938,0.48864,0.96349,0.21144,0.53795,0.62501,0.7938,0.14032,0.84969,1,0,0.47194,0.14032
2,72,0.53108,0.52594,0.33065,0.95214,0,0.29132,0.43909,0.62501,0.5123,0.71631,0.72677,0.80392,0.47527,0.85594,0.17454,0.492,0.72503,0.80392,0.10924,0.7424,0.99975,0,0.37161,0.10924
2,73,0.5123,0.514,0.34207,0.90733,0.0033,0.26131,0.4786,0.59871,0.4786,0.76483,0.77168,0.80224,0.47527,0.80392,0.16869,0.45213,0.7751,0.80224,0.09099,0.676,0.99842,0,0.32643,0.09099
2,74,0.47526,0.52252,0.3701,0.86211,0.08386,0.23903,0.63028,0.56212,0.48529,0.79211,0.87708,0.78363,0.431,0.86211,0.16294,0.47693,0.74586,0.78363,0.08623,0.57254,0.99495,0.02206,0.29132,0.08623
2,75,0.43909,0.49537,0.40552,0.83531,0.10426,0.21037,0.63731,0.62501,0.51911,0.71282,0.91961,0.80392,0.45542,0.86968,0.17257,0.5106,0.75622,0.80392,0.0867,0.43909,0.98597,0.08575,0.26494,0.0867
2,76,0.41659,0.43423,0.38531,0.84335,0.1336,0.1775,0.60571,0.58473,0.50551,0.62325,0.92976,0.86058,0.53279,0.80895,0.20297,0.55519,0.87854,0.86058,0.09003,0.3392,0.97039,0.14291,0.25533,0.09003
2,77,0.38531,0.3641,0.37615,0.81229,0.16676,0.16199,0.60396,0.62325,0.45542,0.61097,0.92648,0.90214,0.55346,0.81229,0.20613,0.59171,0.89949,0.90214,0.09596,0.2798,0.94274,0.21681,0.27231,0.09596
2,78,0.36261,0.3005,0.35226,0.72154,0.16011,0.17651,0.55692,0.67249,0.43585,0.55346,0.90605,0.90345,0.60221,0.78363,0.19261,0.61974,0.83369,0.90345,0.1025,0.23,0.90475,0.25891,0.29002,0.1025
2,79,0.50382,0.34497,0.28361,0.82059,0.14291,0.16676,0.54139,0.75105,0.32363,0.6883,0.9671,0.94719,0.59696,0.87708,0.26373,0.85749,0.65314,0.94719,0.09859,0.20402,0.82717,0.25296,0.3126,0.09859
2,80,0.66721,0.46696,0.33348,0.84653,0.26861,0.21037,0.90605,0.97855,0.54828,0.81396,0.99878,0.98042,0.83369,0.97736,0.42297,0.84175,0.52252,0.98042,0.09147,0.1658,0.72154,0.2179,0.14999,0.09147
2,81,0.56906,0.462,0.33065,0.77852,0.4505,0.21251,0.98042,0.99495,0.60571,0.75622,0.99794,0.97694,0.84015,0.98246,0.38531,0.70932,0.5157,0.97694,0.03526,0.09245,0.60046,0.03222,0.1086,0.03526
2,82,0.47527,0.41183,0.31946,0.67424,0.55519,0.18449,0.96932,0.99198,0.47194,0.68303,0.98401,0.94632,0.81229,0.97385,0.32224,0.60746,0.46696,0.94632,0.00915,0.07122,0.46531,0,0.06405,0.00915
2,83,0.44234,0.36859,0.30718,0.55347,0.61623,0.16105,0.85904,0.97432,0.32224,0.61974,0.90345,0.86211,0.82553,0.94545,0.28361,0.55865,0.34787,0.86211,0.0467,0.03923,0.36709,0.02008,0.05863,0.0467
2,84,0.45213,0.33348,0.29785,0.44071,0.66545,0.15638,0.66721,0.94274,0.23449,0.5795,0.73025,0.75105,0.85126,0.90082,0.27107,0.55346,0.24017,0.75105,0.06073,0.00604,0.28744,0.06531,0.07499,0.06073
2,85,0.48529,0.31396,0.28616,0.36411,0.74067,0.16772,0.52082,0.92079,0.18853,0.58648,0.54483,0.6549,0.86211,0.87266,0.27604,0.60046,0.17948,0.6549,0.08291,0,0.22226,0.08051,0.08575,0.08291
2,86,0.514,0.32085,0.27479,0.33491,0.77852,0.19984,0.42618,0.91724,0.17062,0.62325,0.39926,0.60571,0.82881,0.86058,0.2798,0.68478,0.15362,0.60571,0.10924,0,0.18955,0.08099,0.08907,0.10924
2,87,0.53108,0.35667,0.25652,0.33065,0.73546,0.24362,0.38072,0.92536,0.17651,0.67073,0.31808,0.61447,0.78192,0.86364,0.29785,0.76826,0.15731,0.61447,0.13443,0.03425,0.18048,0.08955,0.08764,0.13443
2,88,0.55519,0.44886,0.24132,0.35079,0.63204,0.26616,0.37767,0.93701,0.18752,0.72677,0.29522,0.66897,0.74413,0.87561,0.35079,0.85283,0.18048,0.66897,0.1264,0.1025,0.17257,0.09545,0.07805,0.1264
2,89,0.59521,0.5795,0.23336,0.39926,0.47194,0.26984,0.40082,0.94545,0.22335,0.77168,0.3005,0.75967,0.64259,0.87708,0.41342,0.91961,0.22007,0.75967,0.11255,0.28873,0.15271,0.12718,0.08195,0.11255
2,90,0.60221,0.61272,0.27231,0.47527,0.35667,0.29522,0.48697,0.94632,0.3005,0.7955,0.31946,0.85594,0.60221,0.81562,0.55001,0.95293,0.27355,0.85594,0.15089,0.33065,0.13035,0.24943,0.16676,0.15089
2,91,0.53451,0.54311,0.30988,0.61272,0.30988,0.34207,0.6549,0.97039,0.43585,0.76311,0.37919,0.87708,0.55519,0.77168,0.77168,0.94274,0.34207,0.87708,0.17948,0.31396,0.1067,0.30583,0.43261,0.17948
2,92,0.48697,0.43585,0.31124,0.67073,0.27355,0.37463,0.70757,0.9831,0.53623,0.71456,0.50551,0.87561,0.50721,0.76311,0.78022,0.93398,0.38378,0.87561,0.14032,0.55174,0.08575,0.27479,0.676,0.14032
2,93,0.44071,0.38994,0.30853,0.70057,0.23224,0.37919,0.68654,0.9831,0.57776,0.69882,0.67952,0.87708,0.48194,0.70582,0.61447,0.81396,0.42297,0.87708,0.13861,0.57254,0.06004,0.24943,0.67424,0.13861
2,94,0.38072,0.4505,0.30449,0.76654,0.19057,0.33633,0.6549,0.96156,0.58648,0.69707,0.82553,0.82881,0.47693,0.77339,0.49537,0.65842,0.49875,0.82881,0.15917,0.415,0.02407,0.1855,0.52765,0.15917
2,95,0.32643,0.44396,0.28744,0.76483,0.17355,0.30182,0.57776,0.97432,0.59346,0.73025,0.73199,0.77681,0.49537,0.83207,0.39148,0.5708,0.63731,0.77681,0.16965,0.38378,0.00997,0.1196,0.45213,0.16965
2,96,0.29261,0.47028,0.25771,0.74587,0.21681,0.30988,0.53108,0.97652,0.514,0.76483,0.58822,0.73373,0.50551,0.83854,0.29785,0.5174,0.73199,0.73373,0.17948,0.42457,0.0191,0.10989,0.41025,0.17948
2,97,0.28233,0.45542,0.22889,0.64786,0.36859,0.27107,0.58299,0.96767,0.44722,0.82553,0.57254,0.70057,0.49706,0.74759,0.22666,0.49875,0.73025,0.70057,0.21144,0.55519,0.044,0.18148,0.431,0.21144
2,98,0.27479,0.51911,0.19984,0.5708,0.31808,0.18853,0.73199,0.935,0.42618,0.84969,0.69531,0.67952,0.48529,0.68478,0.17355,0.4736,0.66721,0.67952,0.22556,0.65666,0.07177,0.33065,0.43585,0.22556
2,99,0.27231,0.53795,0.17062,0.53451,0.30988,0.13946,0.78192,0.89271,0.43909,0.85594,0.79211,0.69005,0.48697,0.69882,0.16484,0.40238,0.53795,0.69005,0.23112,0.63907,0.09394,0.431,0.41818,0.23112
2,100,0.26984,0.49706,0.14291,0.49369,0.32085,0.13278,0.79211,0.89545,0.4587,0.85904,0.84811,0.72677,0.46035,0.67249,0.1518,0.38072,0.39458,0.72677,0.23336,0.59696,0.11121,0.55865,0.38378,0.23336
2,101,0.23903,0.42457,0.12409,0.41659,0.30182,0.1473,0.81728,0.91724,0.47693,0.83854,0.86968,0.75105,0.44722,0.7372,0.14819,0.34207,0.27855,0.75105,0.24017,0.46035,0.11188,0.76654,0.37767,0.24017
2,102,0.20297,0.34933,0.11391,0.5157,0.25533,0.1658,0.81894,0.91843,0.46365,0.84175,0.90082,0.76139,0.48027,0.76997,0.14291,0.30449,0.3005,0.76139,0.27479,0.3167,0.09968,0.7198,0.38378,0.27479
2,103,0.21465,0.34497,0.09245,0.60221,0.17552,0.15362,0.84175,0.95671,0.3701,0.91236,0.98674,0.84969,0.44071,0.78192,0.18853,0.45706,0.30316,0.84969,0.27479,0.26616,0.09003,0.73373,0.38839,0.27479
2,104,0.32503,0.48361,0.0867,0.58997,0.16965,0.1775,0.9895,0.99925,0.56733,0.97039,0.99957,0.94632,0.72503,0.89545,0.21037,0.492,0.33491,0.94632,0.26984,0.18752,0.09245,0.6461,0.16011,0.26984
2,105,0.27729,0.50721,0.06594,0.48697,0.52937,0.20297,0.97039,1,0.65666,0.94719,0.99639,0.94889,0.73199,0.86667,0.19057,0.43585,0.415,0.94889,0.25296,0.08623,0.10796,0.29917,0.16389,0.25296
2,106,0.24594,0.44559,0.02107,0.32224,0.86058,0.19159,0.71456,1,0.56906,0.90345,0.95293,0.90733,0.65314,0.79211,0.16772,0.42778,0.44559,0.90733,0.2179,0.07603,0.11055,0.14465,0.09859,0.2179
2,107,0.24017,0.3656,0,0.19776,0.94365,0.16676,0.36709,0.99752,0.42297,0.86058,0.75278,0.80224,0.58299,0.71456,0.14819,0.47693,0.431,0.80224,0.22777,0.06894,0.10366,0.05259,0.00915,0.22777
2,108,0.25414,0.28616,0,0.12955,0.94804,0.14378,0.16772,0.98488,0.3126,0.81894,0.52765,0.6549,0.5089,0.63204,0.13609,0.56559,0.38378,0.6549,0.29132,0.08099,0.11323,0,0,0.29132
2,109,0.2798,0.25533,0,0.1153,0.88144,0.12409,0.08955,0.94632,0.27479,0.82224,0.38839,0.52082,0.4587,0.59696,0.13035,0.67424,0.33206,0.52082,0.30449,0.08859,0.14909,0,0,0.30449
2,110,0.3167,0.25652,0,0.1264,0.7545,0.10796,0.05644,0.8843,0.28744,0.84015,0.32643,0.44722,0.43585,0.59871,0.13693,0.77339,0.3005,0.44722,0.32224,0.06952,0.20192,0,0,0.32224
2,111,0.38685,0.27604,0.04117,0.14999,0.68303,0.10023,0.03526,0.83693,0.32363,0.84653,0.30988,0.43909,0.42297,0.61798,0.17062,0.85749,0.30182,0.43909,0.35079,0.06716,0.26738,0.03825,0,0.35079
2,112,0.4786,0.3167,0.08955,0.1865,0.59871,0.09913,0.04491,0.82389,0.36261,0.84175,0.32224,0.50382,0.42939,0.64434,0.26252,0.92536,0.30316,0.50382,0.35667,0.10989,0.31396,0.06776,0.01717,0.35667
2,113,0.54139,0.38225,0.11814,0.24594,0.58124,0.1086,0.07499,0.83693,0.38839,0.84653,0.36112,0.65314,0.41978,0.66897,0.40238,0.96349,0.28488,0.65314,0.37463,0.26984,0.35373,0.10989,0.04212,0.37463
2,114,0.53279,0.46035,0.14553,0.3552,0.67249,0.13443,0.14378,0.82389,0.43746,0.87117,0.4505,0.82553,0.47194,0.64962,0.58997,0.97142,0.27729,0.82553,0.38685,0.48697,0.415,0.21037,0.06594,0.38685
2,115,0.4786,0.42618,0.16105,0.55519,0.75278,0.17948,0.34352,0.81062,0.58473,0.89815,0.57776,0.86058,0.49875,0.66194,0.78872,0.95523,0.26984,0.86058,0.25414,0.53795,0.50212,0.23903,0.06594,0.25414
2,116,0.40867,0.36112,0.16011,0.65138,0.82553,0.22889,0.54656,0.7938,0.63731,0.85283,0.64786,0.78022,0.46531,0.69707,0.76311,0.92424,0.25414,0.78022,0.22556,0.57776,0.56385,0.26494,0.08051,0.22556
2,117,0.37312,0.37312,0.15638,0.73373,0.90214,0.26011,0.72677,0.76826,0.61097,0.78363,0.71456,0.74586,0.45377,0.73199,0.58822,0.88854,0.29785,0.74586,0.22446,0.61447,0.5708,0.33206,0.13693,0.22446
2,118,0.35373,0.38378,0.14204,0.79887,0.90987,0.27355,0.72154,0.77168,0.49369,0.80895,0.76311,0.66545,0.45377,0.72677,0.5157,0.81728,0.47194,0.66545,0.21251,0.55692,0.55001,0.41183,0.31533,0.21251
2,119,0.32924,0.41659,0.1153,0.71282,0.95954,0.27729,0.67424,0.86211,0.50212,0.86211,0.76139,0.60396,0.46035,0.67249,0.4505,0.72329,0.73025,0.60396,0.22556,0.49706,0.514,0.415,0.48864,0.22556
2,120,0.30988,0.462,0.097,0.66194,0.95743,0.27479,0.65314,0.89681,0.49875,0.89949,0.7545,0.54656,0.46862,0.56559,0.41183,0.61798,0.81894,0.54656,0.25178,0.4736,0.46862,0.3977,0.55001,0.25178
2,121,0.31124,0.56039,0.09545,0.61097,0.94972,0.2798,0.66018,0.81894,0.49537,0.88994,0.75967,0.47028,0.462,0.45706,0.39614,0.53795,0.69882,0.47028,0.29002,0.44234,0.47028,0.37312,0.54828,0.29002
2,122,0.3126,0.58822,0.09968,0.56212,0.90987,0.25771,0.7198,0.73199,0.50721,0.89815,0.76826,0.40395,0.462,0.48027,0.44234,0.48361,0.47693,0.40395,0.29785,0.44071,0.50382,0.33348,0.462,0.29785
2,123,0.31124,0.58299,0.09394,0.52937,0.82059,0.20402,0.77168,0.65842,0.49875,0.92195,0.83854,0.42939,0.47693,0.47194,0.32783,0.44396,0.29132,0.42939,0.29261,0.37615,0.50382,0.34787,0.36709,0.29261
2,124,0.32224,0.49875,0.08386,0.492,0.68303,0.14909,0.71631,0.73199,0.5157,0.89815,0.85749,0.4786,0.49706,0.54656,0.28361,0.46862,0.22335,0.4786,0.32924,0.31533,0.47028,0.32503,0.3005,0.32924
2,125,0.34642,0.37312,0.06952,0.45213,0.56039,0.12257,0.68127,0.80728,0.52423,0.84811,0.95135,0.54139,0.52082,0.53451,0.23449,0.48864,0.23,0.54139,0.3392,0.45213,0.45542,0.32643,0.24017,0.3392
2,126,0.36261,0.29785,0.03825,0.42939,0.46531,0.11742,0.676,0.86211,0.50212,0.80895,0.96221,0.58648,0.5089,0.52765,0.18955,0.46531,0.26011,0.58648,0.32783,0.58124,0.44722,0.35226,0.26738,0.32783
2,127,0.40552,0.25296,0,0.61798,0.37312,0.1196,0.76483,0.95671,0.3641,0.89545,0.99891,0.7372,0.50043,0.69882,0.24943,0.79887,0.28488,0.7372,0.32643,0.5795,0.41818,0.34787,0.22116,0.32643
2,128,0.52594,0.48194,0,0.63379,0.33491,0.17062,0.9671,1,0.62676,0.96932,1,0.90214,0.6461,0.78703,0.31124,0.93701,0.31396,0.90214,0.32783,0.59171,0.36112,0.26861,0.0734,0.32783
2,129,0.46531,0.58822,0,0.67073,0.40238,0.20613,0.92424,1,0.73373,0.96156,1,0.86516,0.58997,0.7372,0.26252,0.87414,0.41978,0.86516,0.62325,0.38378,0.29654,0.20088,0,0.62325
2,130,0.42618,0.53795,0,0.6461,0.55174,0.1988,0.67249,1,0.63028,0.90475,0.99232,0.76826,0.514,0.67073,0.19984,0.79211,0.415,0.76826,0.52082,0.22446,0.23336,0.35667,0.07394,0.52082
2,131,0.44071,0.46365,0,0.60746,0.72851,0.17948,0.42939,1,0.49706,0.82717,0.94365,0.64259,0.44886,0.61974,0.1716,0.72677,0.32924,0.64259,0.30583,0.07394,0.19159,0.41342,0.08099,0.30583
2,132,0.492,0.4071,0,0.56733,0.80224,0.16105,0.27729,0.99759,0.39303,0.74067,0.82881,0.514,0.38225,0.58997,0.16965,0.68303,0.23336,0.514,0.3552,0.09294,0.1716,0.38685,0.05934,0.3552
2,133,0.54828,0.37919,0,0.53108,0.80728,0.15917,0.20613,0.98841,0.34787,0.68127,0.76997,0.40867,0.35226,0.59696,0.19057,0.676,0.16294,0.40867,0.46035,0.40552,0.17257,0.34933,0.03825,0.46035
2,134,0.57776,0.36859,0,0.5106,0.76483,0.17355,0.17948,0.96767,0.3392,0.65138,0.75795,0.35815,0.35373,0.63379,0.23336,0.70582,0.11814,0.35815,0.55692,0.18752,0.18955,0.29917,0.04021,0.55692
2,135,0.57776,0.37463,0,0.50382,0.64083,0.19057,0.18853,0.94719,0.34787,0.64434,0.74932,0.36859,0.3701,0.69531,0.29522,0.76311,0.08812,0.36859,0.63555,0.03425,0.19364,0.25533,0.05863,0.63555
2,136,0.56385,0.42618,0.01082,0.5123,0.42297,0.21144,0.22889,0.94182,0.35667,0.66545,0.72677,0.42778,0.39303,0.75967,0.40082,0.83207,0.05493,0.42778,0.69882,0.04021,0.16772,0.23112,0.06835,0.69882
2,137,0.54483,0.53967,0.05259,0.53795,0.27231,0.22556,0.29002,0.94274,0.3656,0.72329,0.69356,0.55001,0.40395,0.81229,0.5123,0.89271,0.03425,0.55001,0.73373,0.09494,0.12955,0.3167,0.07177,0.73373
2,138,0.52765,0.6461,0.07603,0.57428,0.26131,0.27479,0.45542,0.91236,0.35373,0.81728,0.63204,0.71456,0.48697,0.80056,0.72329,0.91112,0.02206,0.71456,0.68303,0,0.09444,0.35226,0.07654,0.68303
2,139,0.49706,0.63028,0.08907,0.6918,0.33348,0.3167,0.76826,0.89409,0.42137,0.85749,0.64962,0.79211,0.53451,0.79718,0.81396,0.79718,0.03726,0.79211,0.50043,0,0.06004,0.39303,0.07447,0.50043
2,140,0.42618,0.46862,0.097,0.7545,0.38378,0.33776,0.9231,0.90605,0.45542,0.7955,0.66545,0.77339,0.514,0.75795,0.67424,0.71456,0.03222,0.77339,0.27729,0.01717,0.0261,0.44559,0.07855,0.27729
2,141,0.3701,0.45706,0.1025,0.78192,0.36261,0.35667,0.92759,0.76654,0.46696,0.73546,0.65138,0.70407,0.5123,0.72851,0.55174,0.60221,0.00604,0.70407,0.15271,0,0.03018,0.50721,0.1264,0.15271
2,142,0.33633,0.62676,0.1025,0.70057,0.29392,0.37312,0.86818,0.69882,0.50382,0.73373,0.61272,0.63379,0.5174,0.79042,0.44396,0.55346,0,0.63379,0.11814,0,0.06004,0.55692,0.30853,0.11814
2,143,0.32363,0.78022,0.09494,0.70582,0.37312,0.37312,0.8056,0.70407,0.53795,0.78703,0.60221,0.5795,0.52082,0.83207,0.3552,0.49032,0.01256,0.5795,0.12718,0,0.08099,0.58473,0.52765,0.12718
2,144,0.29132,0.80224,0.08481,0.78873,0.38685,0.35815,0.76139,0.69707,0.60746,0.85126,0.62852,0.514,0.5174,0.76139,0.27855,0.43585,0.04212,0.514,0.10733,0.10023,0.08051,0.60746,0.59521,0.10733
2,145,0.26011,0.72677,0.07177,0.70582,0.38378,0.35079,0.78533,0.71806,0.59171,0.86058,0.68654,0.4736,0.51911,0.63907,0.26861,0.42297,0.04307,0.4736,0,0.33348,0.06952,0.63907,0.55865,0
2,146,0.24017,0.62852,0.05338,0.63908,0.34063,0.34933,0.87561,0.67424,0.53279,0.87414,0.71631,0.46035,0.52765,0.56212,0.25771,0.45706,0.05416,0.46035,0,0.49369,0.05493,0.65138,0.5157,0
2,147,0.24247,0.49537,0.03425,0.62852,0.30316,0.34063,0.86968,0.66018,0.4505,0.85749,0.67073,0.5174,0.55001,0.5157,0.25414,0.45706,0.07122,0.5174,0,0.41342,0.01437,0.64962,0.4786,0
2,148,0.25296,0.39926,0.00997,0.68127,0.29654,0.33348,0.84015,0.65666,0.35963,0.83693,0.57602,0.55865,0.5708,0.44396,0.22777,0.52082,0.08623,0.55865,0.07232,0.29132,0,0.6461,0.44234,0.07232
2,149,0.27107,0.3656,0,0.70757,0.26738,0.32085,0.8056,0.67249,0.3126,0.80224,0.54311,0.66194,0.56906,0.4071,0.18348,0.49706,0.09245,0.66194,0.11671,0.21573,0,0.65842,0.41342,0.11671
2,150,0.28873,0.34207,0,0.73546,0.24594,0.29785,0.78192,0.69356,0.25296,0.75967,0.55692,0.76311,0.55865,0.30988,0.13035,0.4505,0.09859,0.76311,0.17552,0.14909,0,0.67424,0.3701,0.17552
2,151,0.26861,0.44071,0,0.86667,0.16105,0.24594,0.82059,0.84811,0.13278,0.83854,0.74586,0.90345,0.55865,0.5089,0.17651,0.73199,0.08291,0.90345,0.24247,0.10796,0,0.64083,0.29392,0.24247
2,152,0.3977,0.61272,0,0.81396,0.13609,0.26252,0.95214,0.99895,0.26494,0.94804,0.99456,0.97969,0.72154,0.6918,0.28873,0.80056,0.10192,0.97969,0.21681,0.07551,0.00678,0.54139,0.11121,0.21681
2,153,0.44722,0.52594,0,0.71282,0.19776,0.30316,0.9729,0.99962,0.35963,0.91961,0.99712,0.97566,0.69531,0.5708,0.34642,0.67073,0.14999,0.97566,0.13035,0.06405,0.06776,0.29392,0.07287,0.13035
2,154,0.4736,0.41659,0,0.53795,0.2798,0.31808,0.94804,0.99297,0.44886,0.80056,0.98649,0.93799,0.60396,0.4505,0.39614,0.49875,0.17849,0.93799,0.13035,0.08339,0.08481,0.1988,0.08907,0.13035
2,155,0.48361,0.34787,0,0.35226,0.38531,0.33348,0.81062,0.935,0.49706,0.66721,0.91604,0.83854,0.50551,0.34352,0.46365,0.36261,0.16676,0.83854,0.09753,0.13116,0.08717,0.42939,0.03222,0.09753
2,156,0.49032,0.30449,0,0.22226,0.5157,0.27231,0.61798,0.78363,0.50382,0.55865,0.75622,0.69707,0.42137,0.26861,0.53451,0.30449,0.1336,0.69707,0,0.18449,0.08339,0.40552,0.01529,0
2,157,0.52082,0.26494,0,0.16389,0.61447,0.1775,0.48697,0.63028,0.48194,0.50721,0.64259,0.5708,0.3977,0.23562,0.5795,0.31946,0.10924,0.5708,0,0.19984,0.08099,0.34063,0.03018,0
2,158,0.5708,0.23562,0,0.14553,0.64434,0.13116,0.40867,0.54311,0.44559,0.52765,0.56906,0.49369,0.40082,0.24478,0.63028,0.36709,0.09968,0.49369,0,0.19466,0.09444,0.29002,0.05863,0
2,159,0.61447,0.23562,0,0.14642,0.58648,0.13116,0.34642,0.5157,0.38839,0.60571,0.50212,0.48361,0.39614,0.27855,0.75105,0.43909,0.09444,0.48361,0,0.22116,0.12107,0.22666,0.07705,0
2,160,0.63731,0.29392,0.03526,0.16294,0.41183,0.15731,0.32783,0.51911,0.31396,0.72851,0.44396,0.52765,0.38072,0.33633,0.86516,0.54828,0.08764,0.52765,0,0.24362,0.14999,0.21144,0.07551,0
2,161,0.65138,0.41025,0.08291,0.19673,0.22226,0.21144,0.31808,0.54139,0.25178,0.85594,0.40082,0.63555,0.34207,0.40552,0.92536,0.76654,0.09753,0.63555,0,0.09545,0.17062,0.35815,0.03425,0
2,162,0.60746,0.53279,0.1153,0.2748,0.13693,0.28233,0.37615,0.58822,0.24017,0.88287,0.38839,0.75795,0.39458,0.48361,0.96349,0.95523,0.10796,0.75795,0.01623,0.10079,0.20192,0.62325,0,0.01623
2,163,0.49537,0.52252,0.14204,0.44071,0.12182,0.37767,0.53795,0.73199,0.34497,0.79887,0.42778,0.82224,0.42778,0.63907,0.93294,0.98147,0.13197,0.82224,0.09294,0.13861,0.25178,0.57602,0,0.09294
2,164,0.4587,0.43909,0.13946,0.55001,0.09648,0.43423,0.57254,0.84811,0.45542,0.6918,0.48864,0.82224,0.41818,0.70407,0.71456,0.98078,0.17552,0.82224,0.10547,0.23903,0.3167,0.50551,0,0.10547
2,165,0.40709,0.39458,0.13443,0.60571,0.08764,0.46531,0.55001,0.85594,0.52594,0.63555,0.54828,0.78363,0.38378,0.70407,0.57254,0.96089,0.20402,0.78363,0.08147,0.26373,0.38685,0.52937,0.00997,0.08147
2,166,0.38378,0.40867,0.13525,0.64083,0.11121,0.20718,0.51911,0.77168,0.55174,0.67073,0.5708,0.74413,0.37919,0.676,0.5106,0.90987,0.21681,0.74413,0.04581,0.24247,0.43746,0.6549,0.16869,0.04581
2,167,0.36112,0.52937,0.13116,0.67249,0.21144,0.2179,0.48697,0.74587,0.52594,0.6918,0.5795,0.7198,0.37463,0.62501,0.41978,0.82717,0.25533,0.7198,0,0.34787,0.47194,0.676,0.34352,0
2,168,0.34787,0.69005,0.12562,0.69005,0.28873,0.19776,0.47028,0.73893,0.49369,0.76826,0.61974,0.69882,0.3656,0.55001,0.36261,0.75105,0.29785,0.69882,0,0.38839,0.47693,0.71107,0.45377,0
