NUM ...Nombre... .PV. .VAA .TAA #Uni Tipo ....Pot .FPMed. .QMin.. .QMax.. .VMin.. .VMax.. .VInic. Min.V+T 
 204 CACH.CALDEIR  204  280  280    3    0     2190.140519       0    1641  230.56  230.56       0      43
 267 ESTREITO TOC  271  275  275    8    0    1087 0.20335       0    6280    5400    5400       0     744
 275 TUCURUI       275             25    0    85350.518557       0   14626   11293   50275  0.9869    2000
 277 BALBINA       269              5    0  249.750.198364       0    1275  9711.9 20006.2  0.6561     300
 280 COARACY NUNE  280  284  284    3    0      780.154478       0     399   24.57   138.8       0      43
 284 FERREIRA GOM  297              3    0     252 0.17089       0    1722  137.31  137.31       0      43
 286 STO ANT JARI  290              3    0  389.550.238987       0    1755  104.61  133.39       0      33
 314 PIMENTAL     9000              6    0   233.10.116291       0    2466  4802.3  4802.3       0     380
 272 CURUA-UNA     277              3    0    30.30.152937       0     188     133     602  0.9979      17
 288 BELO MONTE    292  314        18    0   110000.803231       0   13950  4802.3  4802.3       0     300
