!Num Nome........ UComb.. Custo...
 999 Peq-SE       MWh            0
   1 Nuclear      MWh        31.17
  13 Nuclear      MWh        20.12
 211 Gas          MWh       112.08
  97 Gas          MWh       332.47
  12 Gas          MWh       377.54
 153 Diesel       MWh       1178.2
  65 Residuos I   MWh            0
 183 Residuos I   MWh       191.73
 137 Gas          MWh       236.73
 238 Gas          MWh       169.55
 155 Diesel       MWh      1235.41
  63 Gas          MWh       346.37
   2 Oleo         MWh       939.55
  54 Gas          MWh       283.74
  15 GNL          MWh       187.98
 236 Gas          MWh        85.01
 110 Gas          MWh       548.04
 171 Gas          MWh        81.94
 172 Gas          MWh        93.01
 173 Gas          MWh       178.29
 174 Gas          MWh       311.34
 229 Biomassa     MWh        91.75
 182 Diesel       MWh       924.61
  50 Gas          MWh       470.34
 230 Biomassa     MWh       129.04
   9 Gas          MWh        978.1
  62 Gas          MWh       343.28
   4 Oleo         MWh       310.41
  86 GNL          MWh       126.67
 146 Biomassa     MWh       116.91
 194 Oleo         MWh       910.86
 223 Biomassa     MWh       127.25
  90 Gas          MWh       611.64
  47 Gas          MWh       267.33
  68 Gas          MWh       224.22
  49 Oleo         MWh       467.22
 108 Diesel       MWh      1694.55
