Hour,SUDESTE      - HGen, SUDESTE      - TGen, SUDESTE      - Renw,SUL          - HGen, SUL          - TGen, SUL          - Renw,NORDESTE     - HGen, NORDESTE     - TGen, NORDESTE     - Renw,NORTE        - HGen, NORTE        - TGen, NORTE        - Renw,NOFICT1      - HGen, NOFICT1      - TGen, NOFICT1      - Renw 
1,35815.57464177255, 3795.4642231665152, 2.7366,3358.5627839321014, 702.1996951682593, 738.0169861700003,9227.572117939791, 6.40811402065655e-5, 5914.378814845007,11942.523948893497, 349.90566440022116, 285.8144760000003,0.0, 0.0, 0.0
2,32251.763201408798, 3795.463916657659, 3.0307120000000003,3667.5828181628003, 702.1996844540328, 720.2546517400033,9155.893107328786, 7.311101223608577e-5, 5655.862619770006,11926.055988281383, 349.90569207602664, 282.09251400000005,0.0, 0.0, 0.0
3,30720.654739393653, 3795.4640154585213, 3.336464,3451.2347803213293, 702.1996774977899, 693.3766719899993,9044.87975856083, 8.121116111837974e-5, 5442.619690710016,11844.319447709524, 349.90568517085194, 287.1342239999999,0.0, 0.0, 0.0
4,30008.289738715404, 3795.4641862451294, 3.432288,3336.5767158824515, 702.1996946434823, 656.4462232400003,9357.846510111562, 6.502366923174988e-5, 5240.802067715039,11537.230945052695, 349.9056906277893, 288.3819780000001,0.0, 0.0, 0.0
5,30480.04997948836, 3795.4640026704137, 3.1228479999999994,3138.644513823024, 702.1996865031003, 655.5226031499999,9194.531940567702, 7.323481090391575e-5, 5105.8031515450075,11804.876015491067, 349.9056876563512, 298.49308800000034,0.0, 0.0, 0.0
6,31732.97365626322, 3795.4641152788845, 2.82684,3085.1427639532994, 702.1996957637125, 644.79842424,9305.578124076506, 6.478979962143914e-5, 4948.699417544991,11412.4239478705, 349.90563090497665, 307.8288780000003,0.0, 0.0, 0.0
7,33451.70459157212, 3795.4638827365065, 2.603456,4187.849135619218, 702.1996897661008, 620.5696390899992,9236.250640440474, 6.549398166742395e-5, 5258.424795440015,10415.058500958321, 349.90548076622287, 350.3577360000004,0.0, 0.0, 0.0
8,38344.9794163381, 3795.464136996604, 2.22928,4078.7433195956396, 702.199690863642, 559.89651087,9000.879466751645, 6.618276876113863e-5, 6164.265678704984,10443.854899056589, 349.90568490871937, 398.7206640000001,0.0, 0.0, 0.0
9,42893.43302571386, 3795.463924866517, 1.7641120000000003,3499.5844637651444, 702.1997047465152, 506.03228641999954,9316.399624603888, 5.86208556275733e-5, 5997.393764059995,11434.900222692366, 349.905683762465, 392.71278599999965,0.0, 0.0, 0.0
10,45675.96819545055, 3795.464074721152, 1.641344,3999.9089571742943, 702.1996868493567, 479.97444644000035,9405.943912318162, 7.329662149038814e-5, 5350.805256494984,12442.938156332899, 349.90555758742806, 370.13947199999984,0.0, 0.0, 0.0
11,45769.03625126059, 3795.4641714980985, 2.2673919999999996,5012.360088120342, 702.1996922568034, 473.831284819999,9459.981228832137, 6.659554676975047e-5, 4712.62389020499,13130.263366539735, 349.9055901733116, 335.69524199999984,0.0, 0.0, 0.0
12,45789.98332787291, 3795.4642111207068, 1.859192,4774.321222399274, 702.1996962614895, 471.92802279000057,9513.13805663217, 6.558400852592344e-5, 4298.712997739995,13531.72511957516, 349.905691460981, 297.3769680000001,0.0, 0.0, 0.0
13,44812.040334298836, 3795.464296301719, 1.75816,3658.9927578367, 702.1997029926646, 509.45887002999973,9474.390883739412, 5.926403616652009e-5, 4202.952229539975,13558.0073762016, 349.90569161681987, 269.88591000000014,0.0, 0.0, 0.0
14,46198.211922963084, 3795.464150519498, 1.7109759999999998,5200.0758415089185, 702.1996848354386, 511.79529431000066,9392.091675478254, 7.63579511520169e-5, 4325.179493994986,13962.733916760262, 349.9056257960054, 261.63045600000015,0.0, 0.0, 0.0
15,46722.26121692489, 3795.464040928429, 1.6175280000000003,5321.649597470705, 702.1996771171539, 511.80018206999944,9393.595568213275, 8.657902964680469e-5, 4551.155364644963,14238.2740381982, 349.90558452550533, 271.5843719999995,0.0, 0.0, 0.0
16,45817.27493230891, 3795.456971702436, 1.499464,6044.2968102599, 702.1997051011117, 522.4226484800008,9400.633489159156, 6.033915623970553e-5, 4856.219590895008,13722.630923972392, 349.9056336368295, 296.7520260000002,0.0, 0.0, 0.0
17,46773.04980851871, 3795.4642220021997, 1.4835919999999998,5117.965044587179, 702.1997027299922, 533.0560281600007,9607.597304332594, 5.755330480047258e-5, 5208.567895349991,12690.150938967856, 349.9056855013218, 333.9759059999998,0.0, 0.0, 0.0
18,45090.50774203169, 3795.4636291707607, 1.6909200000000002,4086.5765054511785, 702.1996959198457, 604.0430226600007,9604.436932422015, 6.372132795475308e-5, 5609.159410600001,11354.346269958754, 349.9056581196131, 365.8436880000002,0.0, 0.0, 0.0
19,42968.691827644005, 3795.464144364043, 1.780856,3764.6996622970905, 702.1996860244789, 668.3238314200009,9425.566245042219, 7.27488896204517e-5, 5941.090122740006,11616.677849712169, 349.9056896496621, 373.7276699999996,0.0, 0.0, 0.0
20,45095.28090240284, 3795.4630300196222, 1.8175359999999998,4530.042888051343, 702.1996762296455, 713.4900252299994,9351.004819594771, 8.222552317791289e-5, 6068.231442345003,12152.65075716248, 349.9056774475464, 362.93070000000034,0.0, 0.0, 0.0
21,46362.709706533315, 3795.4641715853463, 1.9077840000000004,4573.98345878525, 702.1996959682654, 780.3536135199981,9430.967849010052, 6.559852585842521e-5, 6131.9698612250095,12160.018207617914, 349.90569096007533, 338.7671280000001,0.0, 0.0, 0.0
22,45449.35091567588, 3795.4642483401835, 2.1959440000000003,4046.0055170394994, 702.1997038208219, 799.4114877699991,9570.446698891406, 5.866535572996477e-5, 6208.143875095013,12489.589715090848, 349.90568258808867, 319.8659339999999,0.0, 0.0, 0.0
23,43740.94611712104, 3795.46420679231, 1.9600239999999998,3598.758294759821, 702.1997034951049, 812.0460632900013,9480.16087194856, 5.85025571111248e-5, 6170.153925015012,12662.500308014649, 349.90569028467445, 302.08341600000017,0.0, 0.0, 0.0
24,38930.78187245623, 3795.4641136058117, 1.7948720000000002,4277.138832301519, 702.1996827997848, 821.3045848700001,9257.431226918357, 7.528329036549436e-5, 6050.679465930012,12738.725282417347, 349.90565402182557, 285.3301139999998,0.0, 0.0, 0.0
25,36693.184602232344, 3795.463960544709, 1.7022,3994.525148489428, 702.199685506727, 842.156547250002,9368.519306180371, 7.327365978097157e-5, 5834.170207115003,12604.364533917806, 349.90561257088996, 273.9814740000004,0.0, 0.0, 0.0
26,33910.868928851945, 3795.464054880321, 1.5005679999999997,4170.747454130207, 702.1996934691368, 860.4546851500024,9335.017087186568, 6.443571348593501e-5, 5569.678286285025,12421.41023359978, 349.90569139114837, 273.0706859999999,0.0, 0.0, 0.0
27,31598.585888874037, 3795.4641281960935, 1.4488,4136.781735227315, 702.199685454904, 839.4012395400001,9292.483413182348, 7.50635797661553e-5, 5380.1471005299845,12323.03660617359, 349.9056823760679, 278.0966339999998,0.0, 0.0, 0.0
28,30309.890185392713, 3795.4640736823203, 1.479816,4647.668418369673, 702.1996850821156, 813.9962607600022,9330.940319576463, 7.616628108047923e-5, 5229.727672405011,12003.047721674611, 349.9056871091815, 280.9572239999994,0.0, 0.0, 0.0
29,30378.244595816104, 3795.4639582746754, 1.390568,4142.113057594771, 702.1996738631573, 805.5115015000008,9325.721769839194, 8.317994942919493e-5, 5095.491700579985,11797.037850466593, 349.90568433640556, 295.1174640000001,0.0, 0.0, 0.0
30,30512.16321502509, 3795.4630650840386, 1.279968,3684.6570285559274, 702.199685638935, 751.9555466700011,9132.497842488849, 7.579875545870545e-5, 4974.150539395013,11406.457178680408, 349.9056860180362, 305.257542,0.0, 0.0, 0.0
31,28386.193135707086, 3795.4641045169415, 1.2370879999999997,4869.281999784224, 702.1996945600022, 745.7115229300003,8833.55920419606, 6.935882575251228e-5, 5291.181983005012,10501.728712280466, 349.9056916380566, 342.97132200000016,0.0, 0.0, 0.0
32,31298.17850758967, 3795.463991742187, 1.0653599999999999,4720.4300942934005, 702.1997033380236, 692.6667520799986,8700.698728754718, 6.161875231593233e-5, 6154.202984044976,9624.182198132074, 349.90567873336954, 396.55275000000023,0.0, 0.0, 0.0
33,34918.94416674301, 3795.464148958809, 1.155616,3776.2515473563167, 702.1996949565062, 645.7848518999992,8946.980874329503, 6.793024381060371e-5, 6056.152948970046,10174.111795279143, 349.9055358923344, 393.0433619999997,0.0, 0.0, 0.0
34,36043.76209315817, 3795.4639850833023, 1.186544,4454.125752152465, 702.1996855761854, 605.0243216900017,9134.221877581283, 7.616746145028019e-5, 5452.510671099995,10964.671733639323, 349.90568372611534, 367.49571599999985,0.0, 0.0, 0.0
35,37437.560631431734, 3795.4641000154234, 1.418888,4544.370011291583, 702.1996937263913, 584.28084739,7770.774216963083, 6.731186571886383e-5, 4844.44833628,13347.374253201873, 349.90569096331257, 325.7293979999998,0.0, 0.0, 0.0
36,39139.993010295366, 3795.4639229262903, 1.567264,3301.4488830229634, 702.1996956516681, 591.3446924900003,7451.347293564909, 6.676304433020704e-5, 4419.906070820012,14347.108055675251, 349.9056061239796, 279.1509839999999,0.0, 0.0, 0.0
37,37567.52789144661, 3795.4641904526065, 1.7105199999999998,3895.2995793969567, 702.1996956919087, 606.8168080799985,9211.309530097673, 6.622740151389212e-5, 4310.975652155003,12672.474608207092, 349.90566320644, 249.63174,0.0, 0.0, 0.0
38,37239.00828464584, 3795.4641490744007, 1.703832,4495.5672658039, 702.1996857442734, 638.1844242099992,6563.963641119895, 7.384741780255925e-5, 4431.442463305013,15375.924204369207, 349.9056762519981, 241.39119600000018,0.0, 0.0, 0.0
39,38123.14434633598, 3795.463738554676, 1.634576,4601.267447450676, 702.1996855571787, 654.9294162100001,9181.115416610413, 7.486925140382462e-5, 4672.919045205002,12672.625596718552, 349.9056179610203, 251.2543739999996,0.0, 0.0, 0.0
40,37966.08370449396, 3795.4642972880106, 1.41864,3945.951394544567, 702.1997048191679, 646.1792217900004,9207.794124246837, 5.849919182163219e-5, 4989.861307969984,12234.182654426108, 349.90567692025274, 276.7768859999998,0.0, 0.0, 0.0
41,38337.00114302936, 3795.464293381304, 1.0873760000000001,4020.969002063564, 702.1997039964916, 649.2839286199999,9285.587078173337, 5.89606100883039e-5, 5310.912728640017,11524.840618043003, 349.9056390738877, 315.2685420000004,0.0, 0.0, 0.0
42,38174.44384963094, 3795.4641320110977, 1.112232,3947.6589060532306, 702.1996864657581, 714.8856672300012,8823.891254970828, 7.575277769840303e-5, 5707.722483140015,11338.34475115599, 349.90567114485157, 354.9623699999998,0.0, 0.0, 0.0
43,39640.77069066329, 3795.4641437836876, 1.248216,4093.763686353317, 702.1996865512482, 818.384042240001,8996.90008603811, 7.387362867315469e-5, 6033.213119974994,12346.028738595953, 349.90568923061267, 365.7985319999996,0.0, 0.0, 0.0
44,43849.65178844348, 3795.464095732946, 1.301832,4220.0151445557885, 702.1996861473126, 886.8099561800001,9230.012037680059, 7.419176850218333e-5, 6143.466910659977,12764.872618345567, 349.90568987616666, 346.77337200000045,0.0, 0.0, 0.0
45,43893.356637371246, 3795.4625469159296, 1.371552,3704.803358438085, 702.1996773286626, 925.7485464200001,8997.642840789362, 8.21441205567825e-5, 6218.679390094961,12591.831113301227, 349.9056202323956, 318.1815300000004,0.0, 0.0, 0.0
46,41866.16036651383, 3795.4640333102616, 1.6139359999999998,3993.10928555352, 702.1996762313545, 936.26356752,8544.69152438944, 8.18094777818536e-5, 6285.696363225011,13230.76370235912, 349.9056836449685, 294.70850400000035,0.0, 0.0, 0.0
47,39266.54815595451, 3795.464000566747, 1.5613840000000003,3692.727671960195, 702.1996770130066, 962.3423800199997,8815.852844218116, 8.203509380126616e-5, 6317.214001015018,12743.780240408918, 349.90568994135907, 273.393168,0.0, 0.0, 0.0
48,35985.612166367784, 3795.463648846979, 1.5034720000000001,3722.9264994798054, 702.199695451384, 981.310423809998,9107.897866295973, 6.620454381414564e-5, 6211.212157810033,12454.234527621624, 349.9056629462928, 256.94360399999994,0.0, 0.0, 0.0
49,33267.02375445269, 3795.4635625945866, 1.7893999999999999,3195.7441396728477, 702.1996865161849, 1010.2992196600027,9283.011027246212, 7.479868116695873e-5, 6032.767900424999,12064.205625352193, 349.90569039966925, 249.16867800000028,0.0, 0.0, 0.0
50,30485.225003615295, 3795.4642760837105, 1.639448,3550.8476368114234, 702.1997044046268, 999.6760262199986,9322.265648337085, 6.0276853034764174e-5, 5895.014328670023,11651.991567747584, 349.9055276466428, 255.60255599999985,0.0, 0.0, 0.0
51,28886.029206300704, 3795.464094706064, 1.483384,3052.164859700819, 702.1996863108517, 950.083128509999,9140.55097299698, 7.642941242176618e-5, 5755.425605839973,11722.228247666566, 349.9056863254901, 260.1160259999999,0.0, 0.0, 0.0
52,27969.944976086, 3795.46388699885, 1.5482319999999998,3151.436805363877, 702.1996771778191, 936.457042850001,9107.31110510057, 8.426969877479476e-5, 5550.211442849997,11625.753646664652, 349.9056549998748, 269.159154,0.0, 0.0, 0.0
53,26703.742154620206, 3795.4639289386887, 1.5860400000000001,3575.412803950677, 702.1996952343242, 915.465504420001,8864.32745890911, 6.86534245853335e-5, 5380.205614585019,11829.520895452875, 349.9056583934358, 280.80471599999976,0.0, 0.0, 0.0
54,26017.318677164447, 3795.4641296499017, 1.61904,3011.7672289538314, 702.1996862635317, 887.5785701099999,8713.14684231398, 7.70282319233121e-5, 5199.4454365099755,11275.996688354171, 349.9056850713608, 289.25868599999995,0.0, 0.0, 0.0
55,23870.8396050586, 3795.413482298702, 1.51616,3628.7346779056134, 702.1996863268268, 867.0036699400003,8583.369310256672, 7.80411228638581e-5, 5441.619276654998,10177.793961279216, 349.9056649198502, 334.6545239999997,0.0, 0.0, 0.0
56,25818.81867857646, 3795.463002969275, 1.294808,3193.012741509741, 702.1997041747256, 816.3821045199983,7872.504021025886, 5.9093630035723115e-5, 6373.886569194973,9589.785855081664, 349.9056483446838, 394.6962420000004,0.0, 0.0, 0.0
57,27174.429487305188, 3795.4641835224484, 0.833632,3343.1738171225893, 702.1996957656683, 773.56151905,7777.7951691547505, 7.081147943314182e-5, 6197.883421875026,9703.843651781024, 349.90569026609194, 388.50049799999977,0.0, 0.0, 0.0
58,28863.470281326197, 3795.4633916296307, 0.638448,3602.788939531816, 702.1996770632966, 766.4907554900002,8229.950537102959, 8.531816138900178e-5, 5567.566186570048,9836.679505462269, 349.90565446752305, 356.60289599999993,0.0, 0.0, 0.0
59,29618.89317132759, 3795.463356506006, 0.775992,4089.8792364562278, 702.1996867426927, 728.3366528799987,8429.735329926902, 7.648748633227954e-5, 4907.748133135009,10366.297782431728, 349.90565821018976, 308.029524,0.0, 0.0, 0.0
60,31457.761882847488, 3795.4641494690504, 0.8247439999999999,4107.29865129749, 702.1996956480702, 723.9269489000001,8580.919352324972, 6.919403225348341e-5, 4406.398626324997,10566.179534291747, 349.90568914423017, 259.78161599999976,0.0, 0.0, 0.0
61,32506.021047824437, 3795.464219811609, 1.065288,3386.6578689496346, 702.1996958221481, 787.2765502400008,6372.98853633355, 6.868119342265478e-5, 4233.569039414971,13165.395203261709, 349.9056824642191, 229.94414999999984,0.0, 0.0, 0.0
62,31856.406901973387, 3795.4642160316403, 1.2815040000000002,3278.5827395239926, 702.1996957192016, 834.7981928800004,8885.957144082746, 7.050982631899055e-5, 4296.497320610007,10763.73429898239, 349.9056136974386, 223.37395199999995,0.0, 0.0, 0.0
63,31559.767173002125, 3795.464148558642, 1.269496,4022.5233429790305, 702.199704937543, 882.7942055300002,8710.413154161406, 6.181847725240427e-5, 4525.5649287400165,11126.448325991918, 349.90567787741026, 236.905416,0.0, 0.0, 0.0
64,31841.709475860254, 3795.4629783772457, 1.0978160000000001,4053.2495019265225, 702.1996955533288, 884.52011511,8634.556870751398, 6.983803511752672e-5, 4848.644383824995,10986.879819596914, 349.90569112365506, 264.4710240000003,0.0, 0.0, 0.0
65,33527.511274882476, 3795.4642164570296, 0.8476,3478.5003052184147, 702.1996959572253, 867.5016174900018,8567.150991358667, 7.053239180761899e-5, 5210.9451664949875,10761.945567326778, 349.90569079861194, 300.75727800000004,0.0, 0.0, 0.0
66,35528.12694478383, 3795.464145170758, 0.914968,3491.7877326744638, 702.1996864885145, 915.2850658399993,8445.803252619644, 7.906077345337485e-5, 5706.662785099987,10466.534607890002, 349.9056677175812, 338.06593199999963,0.0, 0.0, 0.0
67,37178.517801383736, 3795.4641983641814, 1.384888,3267.3663343436465, 702.1996960014186, 965.3769068999989,8816.98116952069, 6.876014221228287e-5, 6044.2139121800055,11584.671650108841, 349.90565697181484, 351.4103819999993,0.0, 0.0, 0.0
68,40557.303581014385, 3795.46386999074, 1.518544,4019.904826166489, 702.1996959572692, 1000.4078144299992,8931.658156873345, 6.778533703544158e-5, 6087.155715574996,12096.807411433147, 349.9056886047463, 335.7638280000005,0.0, 0.0, 0.0
69,41943.39367034015, 3795.4634898766435, 1.369288,3850.512190668043, 702.1996770476288, 1016.1989254499997,9041.60578342081, 8.452557425688481e-5, 6067.266086364969,12080.674060334717, 349.9056467841202, 312.66866399999975,0.0, 0.0, 0.0
70,41591.6819724122, 3795.4634314696345, 1.2588240000000002,3327.4364734496316, 702.1997050948831, 1033.2363455500006,9181.855653550741, 6.19658648621666e-5, 6055.496446244985,12160.025833911423, 349.9056655230885, 289.1436660000003,0.0, 0.0, 0.0
71,40586.79533011251, 3795.463781101979, 1.465624,3387.517296794708, 702.1996959146663, 1020.4872301399996,9194.118104453253, 7.112756386756042e-5, 6032.025154290008,12398.913650227452, 349.90530176087236, 269.10590399999984,0.0, 0.0, 0.0
72,38398.76373670101, 3795.461471569063, 1.3024959999999999,3280.2593660554726, 702.1996958362237, 942.5296345100005,9484.169510093872, 6.59085116921967e-5, 5973.698206559995,11929.037591851142, 349.9056044050898, 249.88819199999975,0.0, 0.0, 0.0
73,34430.20381662911, 3795.4624669607574, 1.2841439999999997,3869.456108211877, 702.1996957181066, 947.4486362999994,9332.028195965548, 6.705563723173378e-5, 5885.477308844998,11854.051655194009, 349.905661150415, 236.6890079999999,0.0, 0.0, 0.0
74,33159.14437446437, 3795.4642916424446, 1.339864,3308.2708433921566, 702.1997033421073, 921.0360513599989,9130.706060336262, 5.863579712214317e-5, 5746.307366294997,11798.939200725705, 349.90568462565005, 234.4895699999997,0.0, 0.0, 0.0
75,30971.64525575211, 3795.4642097902074, 1.466904,3905.666832609074, 702.1996944018862, 855.9509729900011,8975.839257662466, 6.792679066523038e-5, 5561.089372829996,11921.41544996381, 349.9055411265196, 236.61360599999995,0.0, 0.0, 0.0
76,30207.72077104027, 3795.464199047614, 1.59492,3451.6392981940603, 702.1996929128404, 828.8588003000009,8982.076483857534, 7.283962957637921e-5, 5412.347698420021,11792.124310966541, 349.9055700456235, 240.44377200000048,0.0, 0.0, 0.0
77,31017.450069378225, 3795.464135206054, 1.632824,2939.5453181511093, 702.1997043901698, 833.6228088999998,8908.041523768912, 6.024123566683692e-5, 5337.402813400003,11728.574765484982, 349.9055884071581, 250.68949799999996,0.0, 0.0, 0.0
78,31142.17587346396, 3795.4637781663714, 1.7400000000000002,3320.2642930354805, 702.1996956802748, 864.06694529,9010.567813673588, 6.988049109992318e-5, 5192.814620220022,11131.981282930621, 349.90563108540823, 262.75083599999994,0.0, 0.0, 0.0
79,33798.12237675663, 3795.4639479667308, 1.7601200000000001,3220.6780450863075, 702.1997045992732, 846.3174552300013,8927.552766502104, 6.0469299727648374e-5, 5502.429872600009,10421.421488391, 349.9056578379423, 313.02181799999966,0.0, 0.0, 0.0
80,38627.54517693438, 3795.463860575344, 1.7019039999999999,3425.6257930729867, 702.1996859972446, 765.5583085699994,8355.982538988595, 8.151382445668363e-5, 6308.235099940019,10788.887062134016, 349.90567909923647, 377.528868,0.0, 0.0, 0.0
81,42816.976141177925, 3795.464139875277, 1.6471839999999998,4566.253192676181, 702.1996926907008, 708.8129881700017,8524.332708824719, 7.061184662868651e-5, 6154.348780300006,12188.817073357655, 349.90564792692606, 369.66533399999986,0.0, 0.0, 0.0
82,45728.26164066007, 3795.4640954812735, 1.4115839999999997,4896.612200789411, 702.1996865934002, 693.7747411699996,8802.215540741592, 7.973119547732611e-5, 5523.472544944978,13091.070970064697, 349.90559030850505, 340.0668539999998,0.0, 0.0, 0.0
83,46974.79379272152, 3795.4638388897138, 1.576264,5731.551632464619, 702.1996853485422, 664.5882684600003,8941.455843714795, 7.840156949191959e-5, 4874.778209189975,14357.297529098429, 349.90566982842057, 299.32038000000034,0.0, 0.0, 0.0
84,46672.381611999015, 3795.463559219693, 1.697336,6021.361545936917, 702.1996868636252, 652.1478455699987,8549.55912292011, 7.712661557200383e-5, 4395.740663530011,15089.207930286546, 349.9056919521585, 260.4546959999998,0.0, 0.0, 0.0
85,46312.60314876137, 3795.464149545574, 1.742808,4875.753071164997, 702.1996868677188, 661.3599772399999,9406.905080249444, 7.480019430336641e-5, 4232.9197457299915,14311.789231085399, 349.9056716509696, 239.10953999999953,0.0, 0.0, 0.0
86,46647.69654979156, 3795.4637941409874, 1.6987199999999998,7420.331345691982, 702.1996756275157, 654.7736627699993,9331.682126260917, 8.400042468366242e-5, 4316.153192874981,14918.699789473854, 349.9056425206014, 240.39265199999988,0.0, 0.0, 0.0
87,47659.86906072099, 3795.4641471888144, 1.6069280000000001,7722.474242891631, 702.1996865511458, 678.0069510199993,8871.549060036747, 7.491457122652669e-5, 4572.023421844993,15541.165158178115, 349.90566267852347, 257.28099600000024,0.0, 0.0, 0.0
88,47825.80069326896, 3795.4640702763018, 1.437,7533.247183941901, 702.1996870179987, 707.5176492800001,8689.528758968512, 7.66666443931764e-5, 4931.573771780006,15259.891017483455, 349.9056854613553, 282.4857120000003,0.0, 0.0, 0.0
89,47153.25225282578, 3795.4638167265393, 1.2231040000000002,7970.03727232986, 702.1996868992999, 725.8719544600009,9328.358892023145, 7.677828888334108e-5, 5293.699685149966,13842.130511150848, 349.905654284169, 315.9267119999997,0.0, 0.0, 0.0
90,46046.11934618848, 3795.4638681548786, 1.399304,5581.087567696586, 702.1996857564237, 764.9116014200008,8231.399097921169, 7.576203559387805e-5, 5754.045493225012,12821.809478934278, 349.90562796233246, 347.1401580000003,0.0, 0.0, 0.0
91,44001.7460240561, 3795.463978033262, 1.584552,3843.920837528573, 702.1996868356322, 773.9888922799995,6806.591319177405, 7.40008599355655e-5, 6107.209688215002,13931.028471155278, 349.90569200984913, 349.41712799999993,0.0, 0.0, 0.0
92,47147.36707160565, 3795.4642455044795, 1.708392,4383.583810367083, 702.199704552602, 828.1544990999982,9421.819536364945, 5.8418781716993154e-5, 6240.369614304985,12051.54086025532, 349.90566278907664, 341.2796760000003,0.0, 0.0, 0.0
93,46870.54966437312, 3795.4640115223756, 1.6033119999999998,5445.542718749641, 702.1996754654145, 885.1036529499974,9101.608498147587, 8.51963327419442e-5, 6274.648634400028,12289.666675242846, 349.90555943244493, 322.48625999999956,0.0, 0.0, 0.0
94,47282.83928374436, 3795.4642280299504, 1.507984,5752.613332955537, 702.1996958191231, 929.852674170001,9533.373302185626, 6.831035477254436e-5, 6272.331513575005,12920.642220244323, 349.90565021725587, 302.6798160000002,0.0, 0.0, 0.0
95,45726.70883218374, 3795.4640738377266, 1.564976,4594.057043030399, 702.1997016219864, 902.1282570199998,9662.784230432424, 5.6306258754618385e-5, 6252.111294479985,13034.316860659226, 349.9056791309663, 282.84951600000005,0.0, 0.0, 0.0
96,43685.87876512434, 3795.4639171801755, 1.6969919999999998,3734.454279322656, 702.1996954396319, 837.6363050699979,9683.168993504205, 6.4845825115935e-5, 6183.7018431299675,12978.542534277758, 349.90565513283303, 264.0092399999996,0.0, 0.0, 0.0
97,39504.09201957176, 3795.464226271684, 2.039752,3449.8000241384625, 702.1996952525841, 814.5604952900005,9665.298386910252, 6.402123737626037e-5, 6067.048099244972,12758.081998653277, 349.90567963209753, 248.43212400000016,0.0, 0.0, 0.0
98,35792.5749543442, 3795.46414044697, 2.04936,3860.3783873424786, 702.1996852975257, 785.7498788499987,9046.963037735368, 7.647978489551522e-5, 5822.516191965013,13158.13235296587, 349.90561062585533, 237.4690139999999,0.0, 0.0, 0.0
99,34124.49767374897, 3795.463972741801, 2.108072,3579.780138344033, 702.1996938850489, 762.1983354399999,8897.196351824383, 7.318122795667332e-5, 5554.888325615009,13068.217409468996, 349.90568454000953, 231.12800399999995,0.0, 0.0, 0.0
100,33282.0486497821, 3795.464035762709, 2.200904,3643.79345162908, 702.1996757196642, 718.3047897299987,8549.90996358686, 8.660582339124465e-5, 5332.86110211001,13426.017677680156, 349.9056393543119, 231.6988439999999,0.0, 0.0, 0.0
101,32717.433206052458, 3795.462603364314, 2.2133599999999998,3551.0059838735006, 702.1996858973481, 697.1921684500015,8807.451264095345, 8.076357487498624e-5, 5231.634529240009,13075.024032329266, 349.90567713025456, 238.18512,0.0, 0.0, 0.0
102,34674.61401700096, 3661.8334604376378, 2.313896,3387.0301395145666, 702.1996955168196, 684.7201101500001,8798.225983128475, 7.172209444832689e-5, 5114.328586965,12482.012565202976, 349.9055070403471, 238.7159159999999,0.0, 0.0, 0.0
103,35331.70112169791, 3795.464137181884, 2.16196,3767.553693765532, 702.1996857179993, 658.0440452600008,8990.270529851497, 7.894026728389193e-5, 5395.03046808997,11399.222869490495, 349.90555785189025, 289.7907599999996,0.0, 0.0, 0.0
104,40145.387302462346, 3795.46361438867, 2.070712,3741.172222990564, 702.1996956492678, 632.3321452500008,8764.634072974412, 7.015602168698916e-5, 6316.2175778150395,11413.94304322606, 349.9056896799999, 364.52990399999965,0.0, 0.0, 0.0
105,44791.220818725604, 3795.4640841518794, 1.5392240000000001,4665.270243717969, 702.1996865012788, 609.0408394599993,7094.99801072421, 7.85697183426528e-5, 6100.019319174989,14354.854181504674, 349.90546758016393, 358.7137259999998,0.0, 0.0, 0.0
106,46923.8795725633, 3795.464068168551, 1.753952,5419.137221264674, 702.1996863689418, 638.7354002200004,8613.397562087175, 7.807522916887557e-5, 5431.51717178999,13820.917139044279, 349.9056639157587, 331.2891240000002,0.0, 0.0, 0.0
107,47218.52299016798, 3795.4640664271055, 2.194328,6361.216161153096, 702.1996938964446, 654.8065098100002,9439.477021827966, 6.499254672388465e-5, 4776.683707634975,14180.847218896302, 349.905612907569, 296.46192000000025,0.0, 0.0, 0.0
108,47926.45886740821, 3795.464307141625, 2.469896,6010.889885345927, 702.1997050053781, 660.3324882199993,9206.552577079317, 5.6675710619516493e-5, 4320.578715345002,14790.245862499936, 349.9056387730281, 265.3779779999998,0.0, 0.0, 0.0
109,47171.34368859634, 3795.4641428539394, 2.5995679999999997,5086.223106079051, 702.1996868923381, 690.5111308399997,9299.202521026267, 7.379242575717535e-5, 4188.9969218799915,14259.29786777366, 349.90568195374414, 251.16193199999995,0.0, 0.0, 0.0
110,47119.44696510255, 3795.4630587590073, 2.768656,8491.581094066629, 702.1996867824231, 702.9977383200006,9499.566139047207, 7.387254965593666e-5, 4270.3255362750015,14640.028806724657, 349.9056910954017, 256.64583000000005,0.0, 0.0, 0.0
111,47631.29491560463, 3795.4639819878685, 2.691944,8947.33743778151, 702.1996960537456, 756.4577763000007,9378.31514689811, 6.647086599904548e-5, 4524.116732700005,15018.28821408262, 349.90554745698836, 275.6433000000004,0.0, 0.0, 0.0
112,48303.36660789166, 3795.464160409214, 2.3316239999999997,8363.73020250501, 702.1996961123575, 786.0557551799989,9025.901207067014, 6.71986623757734e-5, 4908.304566335015,15015.64235864069, 349.90567041898845, 302.68535400000013,0.0, 0.0, 0.0
113,47476.431025756945, 3795.463944375441, 2.2235359999999997,8719.226101074448, 702.1996870179831, 789.8148538600003,9235.471840464063, 7.530984825837906e-5, 5323.571821244981,13778.328782171237, 349.90560798810725, 334.50585000000007,0.0, 0.0, 0.0
114,46428.11500393433, 3795.464178424135, 2.394576,4682.882879250579, 702.1996947738894, 850.12506375,9132.98825513533, 6.793905981035207e-5, 5814.325778050005,12064.102788734592, 349.90563733743926, 351.53520000000003,0.0, 0.0, 0.0
115,44042.17509565989, 3795.4636964640995, 2.3887599999999996,3934.4187656649365, 702.1996957529525, 918.9392762500007,8806.380534009139, 6.814316512051755e-5, 6177.377039294986,12226.352353532511, 349.90553881003956, 340.89499799999976,0.0, 0.0, 0.0
116,46761.94785179568, 3795.46413151028, 2.247568,5762.646789684133, 702.1996952593668, 945.2696842199997,8957.197522464938, 6.759928067482883e-5, 6236.97942981501,12357.563080327558, 349.9056655030195, 325.9692360000003,0.0, 0.0, 0.0
117,46613.07129883015, 3795.4639676490647, 2.095752,6382.612652173662, 702.1996957677313, 958.048400009998,9117.197521622385, 7.014412076193585e-5, 6245.943109694976,12440.668973394912, 349.9055515337143, 309.0617219999996,0.0, 0.0, 0.0
118,47052.52302225018, 3795.4641844651287, 2.1533839999999995,5650.054540137321, 702.1996947428519, 1033.5398430399998,8563.807163799853, 6.968376202933047e-5, 6288.532563125006,13992.543296603337, 349.90556728309963, 291.8091480000002,0.0, 0.0, 0.0
119,45820.462529861106, 3795.463605077968, 2.2302079999999997,4515.40243727365, 702.1996956284946, 1050.2074749900014,9234.724548993214, 6.92559917879447e-5, 6307.020663550002,13583.941477054777, 349.905579367911, 275.44904399999973,0.0, 0.0, 0.0
120,42919.14941299681, 3795.464110719886, 2.238416,3125.365997548103, 702.1997046222501, 1074.0475684300013,9074.339627303305, 5.899402917068598e-5, 6304.500649310003,13563.217417687863, 349.90554839586616, 262.059864,0.0, 0.0, 0.0
121,38190.834473480616, 3795.463592959292, 2.2937920000000003,3376.9769808788187, 702.1996863976705, 1062.731118849999,9054.655870860825, 7.60038978441526e-5, 6203.701476215017,12490.157488844588, 349.90564444043207, 248.52371400000033,0.0, 0.0, 0.0
122,34011.55193092878, 3795.464114232727, 2.545384,3838.0003287402797, 702.1996864080439, 1041.8099345200017,9148.174831102484, 7.624724456414646e-5, 5972.315424880021,12256.930216492387, 349.9056758968239, 246.5198100000004,0.0, 0.0, 0.0
123,33193.84036141951, 3795.4639237701854, 2.329832,3408.545858685698, 702.1997030319616, 998.6248075000013,9076.591022073908, 5.890579777473729e-5, 5781.343357025017,12244.993441755916, 349.9056340517405, 241.80441599999995,0.0, 0.0, 0.0
124,32420.546125847966, 3795.463968166072, 2.192424,3252.9044237803605, 702.1996956806512, 951.9502056300004,8630.776503659825, 6.90322401441143e-5, 5634.455689469994,12682.271119013785, 349.9055454597766, 247.64998800000015,0.0, 0.0, 0.0
125,31304.59104309081, 3795.464220626407, 2.008928,4443.269634329119, 702.1996934633838, 916.6829287499995,9223.4459675649, 6.751371489809353e-5, 5516.4218959599875,11956.537100379233, 349.9056785208059, 256.963626,0.0, 0.0, 0.0
126,33802.98355978678, 3795.464098594348, 2.003728,3048.6695104613577, 702.1997045187014, 902.7045876700006,8984.030081162611, 6.0010124078773795e-5, 5326.0967450150265,12016.39434092122, 349.90555986181215, 263.98666199999974,0.0, 0.0, 0.0
127,35338.59575929428, 3795.464223827801, 1.8826479999999999,3250.57770300743, 702.1996959554102, 843.8436712000008,6116.039344402582, 7.016919078143804e-5, 5649.857612379989,13896.144369778642, 349.9053466482162, 311.26967999999965,0.0, 0.0, 0.0
128,40271.265562290195, 3795.464157714738, 1.736424,3259.279093305415, 702.1996957120391, 750.0697848399994,6059.309987515144, 6.780380705145527e-5, 6627.3582281550125,13601.622895736888, 349.90568883561, 381.9422279999998,0.0, 0.0, 0.0
129,44712.82970592879, 3795.464110398465, 1.561472,3953.7003560741837, 702.1996867273768, 695.0069945700009,8805.372985305565, 7.519813182330812e-5, 6484.218345669985,12231.09319508685, 349.90567064238263, 378.9738600000001,0.0, 0.0, 0.0
130,45543.90037038424, 3795.462781576527, 2.040088,5301.893844260066, 702.1996851876511, 729.5478423199991,8825.18599072619, 7.514862130950767e-5, 5854.058220850005,13326.259851784911, 349.90569087562346, 355.51446599999997,0.0, 0.0, 0.0
131,46979.4238941578, 3795.4641997307335, 2.4092000000000002,5503.01655670856, 702.1996956985494, 769.0302371200017,8937.066343867862, 6.648747336631387e-5, 5206.994184920021,13916.646315236745, 349.90553282954573, 324.1280640000002,0.0, 0.0, 0.0
132,46388.56821121304, 3795.463553310165, 2.74496,5757.306717384131, 702.1996866613944, 768.251861809999,8450.47281596924, 7.668551185747476e-5, 4731.351162040005,14634.011371125402, 349.9056203944027, 294.5035980000003,0.0, 0.0, 0.0
133,46316.84833211291, 3795.4636773540683, 2.80952,4542.6422982128515, 702.1996957101522, 769.2351781199986,8617.427877536837, 6.908161279192983e-5, 4586.840348960004,14166.090445773769, 349.9056621949376, 277.42823999999996,0.0, 0.0, 0.0
134,46920.30914707637, 3795.463974337571, 2.7144960000000005,6126.244141789625, 702.1996846658415, 760.141696509999,9047.797562747222, 7.480488758075527e-5, 4672.487429259972,14116.831049808978, 349.90568719684137, 278.1025980000002,0.0, 0.0, 0.0
135,47071.03517549982, 3795.463477880175, 2.575832,7345.033494051592, 702.1997048892442, 761.8698022100004,8957.907899310185, 5.8530446852547833e-5, 4873.49729839998,14735.964763544056, 349.9056482336721, 294.4605720000001,0.0, 0.0, 0.0
136,47503.78765262845, 3795.4642108829116, 2.3603839999999994,7383.205274484808, 702.1996930153491, 763.8947889500014,9106.36404195015, 6.741313091824109e-5, 5146.410078990003,14206.345730301311, 349.90554366485424, 320.3903399999999,0.0, 0.0, 0.0
137,47546.698344994176, 3795.4640952687123, 2.136592,5842.258432127898, 702.1996845737398, 775.6066581400011,8957.928717620245, 7.645465433638501e-5, 5447.022366470014,13589.946159216439, 349.90569133234465, 348.1348679999999,0.0, 0.0, 0.0
138,46224.867677490394, 3795.46407590869, 2.0075040000000004,3867.134882065892, 702.1996946092737, 798.1613883799997,8618.286447688153, 6.857858148785146e-5, 5851.554981025047,12380.189432653246, 349.9056873829497, 367.8910440000002,0.0, 0.0, 0.0
139,44815.05203875253, 3795.463860837908, 2.072768,3756.184601930358, 702.1996943750682, 823.1699982099988,9222.446127110605, 6.616043626933479e-5, 6240.555873784984,11599.31900019879, 349.90568015541686, 368.0188439999998,0.0, 0.0, 0.0
140,46286.08950950833, 3795.4635594590472, 2.2314160000000003,5228.918302706855, 702.1996856407536, 833.0308728699989,9078.907524679746, 7.486188327402987e-5, 6356.125772389976,12192.0226712993, 349.90556173355884, 355.8437640000002,0.0, 0.0, 0.0
141,47078.73467373299, 3795.4642820389895, 2.099136,4747.615136358307, 702.1997047202154, 845.2710220699993,8988.378876742514, 5.6148697455231486e-5, 6373.290286404983,12380.013814700986, 349.90560101471544, 335.7229319999994,0.0, 0.0, 0.0
142,46337.10618508361, 3795.4638108641, 2.1128240000000003,5286.314950887663, 702.1996864144096, 878.3221161700009,9150.586651463016, 7.322333585346556e-5, 6406.221189699995,12807.002775643938, 349.9056083283892, 315.13733399999995,0.0, 0.0, 0.0
143,45010.34767888226, 3795.4641486091086, 2.01072,3678.214807762283, 702.1996862374006, 898.7013821899986,9313.763787388927, 7.395438029587082e-5, 6405.056036014982,12811.55986128094, 349.90562750437226, 299.27096400000005,0.0, 0.0, 0.0
144,40718.47007504399, 3795.463966353771, 1.8706319999999999,3337.6364359099794, 702.1996956801381, 918.5520554899998,9410.916345858474, 6.492847406719397e-5, 6310.271105459984,12605.7225024531, 349.90569180207245, 284.99314799999985,0.0, 0.0, 0.0
145,36536.636193582715, 3795.464222622821, 1.7054,3463.300149768472, 702.1996929906536, 911.4015684299998,9158.596267913465, 6.507443478718094e-5, 6093.36371319004,12599.976858261236, 349.9056284138529, 271.0774320000001,0.0, 0.0, 0.0
146,34000.07420235908, 3795.464299891734, 1.733704,3213.878593312218, 702.1997047142731, 891.6448339699991,9162.299082435204, 5.715432319665041e-5, 5841.725737625017,12174.871371148876, 349.90564882671026, 266.73904800000014,0.0, 0.0, 0.0
147,31236.140717808346, 3795.464190481629, 1.8157839999999996,3922.316944230641, 702.1996925243756, 823.8252658999995,9196.707510004062, 6.472357779804809e-5, 5651.8613112399935,11814.946389954659, 349.9056176137833, 264.58945199999994,0.0, 0.0, 0.0
148,30652.439301434562, 3795.4641427422725, 1.997632,4092.623855017244, 702.199685577243, 789.68652804,9166.220148128225, 7.354479742073403e-5, 5560.398513435018,11660.80548387212, 349.9055866814897, 273.945264,0.0, 0.0, 0.0
149,31039.632179724482, 3795.4638552567085, 1.9226319999999997,4168.328700819963, 702.1996933856406, 808.0949669300003,9156.140692855313, 6.502181416597115e-5, 5458.086876765019,11623.879479547266, 349.9056699090629, 284.9965559999997,0.0, 0.0, 0.0
150,33327.99343012434, 3795.4641937319075, 2.030112,3295.163998156148, 702.1996950815085, 820.865351330001,9444.018739684461, 6.446259792610574e-5, 5338.797690479997,10911.857518321423, 349.90568656444367, 288.1383060000001,0.0, 0.0, 0.0
151,35081.5786033813, 3795.4640716869926, 2.112616,3217.3372336455086, 702.1997043178712, 763.4585077600004,9331.336666871892, 5.606046255534895e-5, 5724.20474784996,9996.707628473552, 349.9056885565311, 325.05163200000015,0.0, 0.0, 0.0
152,40367.83532220689, 3795.4633883099978, 1.7897279999999998,3540.096234521379, 702.1996849423922, 662.9251799300009,8744.433329627785, 7.386714484263144e-5, 6795.143244469977,10206.332016967528, 349.90568025226935, 390.75531599999994,0.0, 0.0, 0.0
153,44525.90750576984, 3795.4641478446383, 1.490728,3512.2117854420558, 702.199686684395, 583.6947782100001,8753.071389923365, 7.342771295292906e-5, 6797.19059811996,11252.908540845248, 349.9056067200326, 388.95248400000037,0.0, 0.0, 0.0
154,45775.78681990866, 3795.464050333575, 1.3393519999999999,4265.742475666994, 702.1997043007227, 560.7370982200003,9254.610801142175, 5.664595200102702e-5, 6161.897048934992,12027.520187277538, 349.90566826519483, 369.4297560000001,0.0, 0.0, 0.0
155,46165.4458811139, 3795.463609929282, 1.7137600000000002,5677.716826874233, 702.1996947930784, 583.74254597,9180.768684547207, 6.451678128691433e-5, 5414.719060009998,13010.7582512255, 349.9056837268383, 342.40942800000016,0.0, 0.0, 0.0
156,46955.075177783394, 3795.46420264531, 1.9310399999999999,4254.502979493176, 702.1996960366272, 580.0987260400001,9280.255317865394, 6.52392175090599e-5, 4826.312925740037,13761.905795012115, 349.9056877268189, 313.8768,0.0, 0.0, 0.0
157,45937.76373393888, 3795.464268440252, 2.0528720000000003,3748.054274370339, 702.1997042651861, 532.0294531200008,9136.256983462823, 5.545591003126253e-5, 4563.196611815022,13512.718755579206, 349.9056798563346, 296.28044400000005,0.0, 0.0, 0.0
158,46318.808159186745, 3795.464218110063, 2.0918959999999998,4557.320380423407, 702.1996958686121, 519.3956460999992,9321.485933968803, 6.492503015143437e-5, 4598.992000675009,13816.883186965166, 349.905691880448, 296.5688460000002,0.0, 0.0, 0.0
159,47160.05936001152, 3795.463998768506, 2.021712,5175.971297093691, 702.1996773414492, 509.7666338000001,9322.929801185293, 8.393686257615553e-5, 4787.635258610028,14247.564293820678, 349.90563839925187, 311.15934599999986,0.0, 0.0, 0.0
160,46610.35485072362, 3795.464068227734, 1.8492399999999998,5606.488907928579, 702.1996773117548, 509.9325264600002,9185.234381062912, 8.107342197728939e-5, 5078.0962710699905,13940.496470053755, 349.9056070769942, 334.54461600000025,0.0, 0.0, 0.0
161,45561.53677443133, 3795.4639852541595, 1.6616959999999998,5469.648842770176, 702.1996944513726, 548.6596870899997,9151.352699133287, 6.487205163954962e-5, 5406.694552624972,13209.708591437025, 349.90568937900446, 361.2318120000004,0.0, 0.0, 0.0
162,44840.36216684573, 3795.464031159357, 1.6037120000000002,3726.3777125074316, 702.1996960239401, 612.2415254599994,9400.052700361979, 6.472068284567985e-5, 5869.263441570026,11508.611509664648, 349.9056080164452, 376.64960399999995,0.0, 0.0, 0.0
163,43946.9063878061, 3795.464187142078, 1.61488,3430.0551049330966, 702.1996960667799, 671.1667313199997,9097.444029458517, 6.508611242825986e-5, 6279.522528494992,11380.477422791784, 349.90566839351294, 369.3705419999999,0.0, 0.0, 0.0
164,46520.31573849273, 3795.4641501322603, 1.698064,4095.2918966425127, 702.199695955261, 734.7945793800012,9000.196898244829, 6.463619687187817e-5, 6370.563023019997,11945.342980624057, 349.90559242608873, 359.8081199999996,0.0, 0.0, 0.0
165,46508.83121748548, 3795.464197261539, 1.8909280000000004,3888.471836436907, 702.1997050667721, 776.8191665999993,9115.980423284682, 5.579782811719481e-5, 6395.1956752949945,11922.204812559421, 349.90568112530474, 340.4728319999993,0.0, 0.0, 0.0
166,45402.55642833334, 3795.4640605269738, 2.117032,4173.618076468456, 702.1996764925508, 829.8470698599999,8981.945757364118, 8.208993440780877e-5, 6421.352138765022,12648.229465855009, 349.9056820182859, 321.4170000000004,0.0, 0.0, 0.0
167,43185.08608846492, 3795.4624303714504, 1.94256,3518.8210684392666, 702.1996866136491, 865.6833723299987,8069.467885764298, 7.331820963548064e-5, 6428.678445385004,13688.968133821923, 349.9056919991601, 307.130238,0.0, 0.0, 0.0
168,39065.15148385146, 3869.993863280786, 1.676072,3397.2687956506948, 702.1996955508567, 882.75479648,8240.660103542517, 6.567430167487445e-5, 6310.555971974991,12752.386429655597, 879.5149301721706, 291.4308599999998,0.0, 0.0, 0.0
