scenario, hydroCosts, FutureCost, thermalCosts, CommitmentCost, RenewableCosts, ReserveCosts, DeficitCost, RedispatchCost
1, 0.0, 9.34990448326253e9, 4.548456363001646e7, 0.0, 0.0, 0.0, 0.0, 0.0
2, 0.0, 9.352227146197874e9, 4.545850523611983e7, 0.0, 0.0, 0.0, 0.0, 0.0
3, 0.0, 9.35408968221321e9, 4.545365599399035e7, 0.0, 0.0, 0.0, 0.0, 0.0
4, 0.0, 9.346970251010002e9, 4.54627912830166e7, 0.0, 0.0, 0.0, 0.0, 0.0
5, 0.0, 9.345164400016527e9, 4.547900160788022e7, 0.0, 0.0, 0.0, 0.0, 0.0
6, 0.0, 9.352657203964659e9, 4.547103569581363e7, 0.0, 0.0, 0.0, 0.0, 0.0
7, 0.0, 9.35294845124834e9, 4.545301943312156e7, 0.0, 0.0, 0.0, 0.0, 0.0
8, 0.0, 9.355653773238426e9, 4.543950106791752e7, 0.0, 0.0, 0.0, 0.0, 0.0
9, 0.0, 9.348601898414791e9, 4.547987890994207e7, 0.0, 0.0, 0.0, 0.0, 0.0
10, 0.0, 9.348863166268068e9, 4.547932656781057e7, 0.0, 0.0, 0.0, 0.0, 0.0
11, 0.0, 9.35018271072149e9, 4.54661251391119e7, 0.0, 0.0, 0.0, 8.616120337606665, 0.0
