Stage, Serie, Hour,SUDESTE     ,SUL         ,NORDESTE    ,NORTE       ,NOFICT1     
1, 1, 1,43201.62,12784.695,12161.1,6657.42,0.0
1, 1, 2,40891.62,12016.62,11853.45,6546.54,0.0
1, 1, 3,39305.805,11457.6,11566.8,6426.42,0.0
1, 1, 4,38508.855,11167.695,11326.35,6246.24,0.0
1, 1, 5,38273.235,11049.885,11138.4,6178.095,0.0
1, 1, 6,38090.745,11049.885,10431.75,6151.53,0.0
1, 1, 7,37452.03,10892.805,9898.35,5845.455,0.0
1, 1, 8,39132.555,11620.455,10080.0,5697.615,0.0
1, 1, 9,41100.675,12277.65,10502.1,5850.075,0.0
1, 1, 10,42832.02,12647.25,10827.6,5887.035,0.0
1, 1, 11,43853.04,12984.51,11110.05,5959.8,0.0
1, 1, 12,44008.965,13118.49,11225.55,6006.0,0.0
1, 1, 13,43958.145,12639.165,11246.55,5979.435,0.0
1, 1, 14,43886.535,12671.505,11289.6,6081.075,0.0
1, 1, 15,43872.675,12806.64,11285.4,6171.165,0.0
1, 1, 16,44008.965,12840.135,11120.55,6265.875,0.0
1, 1, 17,43937.355,12895.575,10936.8,6146.91,0.0
1, 1, 18,44211.09,13078.065,10869.6,6064.905,0.0
1, 1, 19,45867.36,13318.305,12171.6,6263.565,0.0
1, 1, 20,49087.5,14096.775,12547.5,6584.655,0.0
1, 1, 21,48411.825,14650.02,12395.25,6648.18,0.0
1, 1, 22,46775.19,13900.425,12395.25,6647.025,0.0
1, 1, 23,44579.535,13151.985,12307.05,6610.065,0.0
1, 1, 24,42410.445,12331.935,12090.75,6581.19,0.0
1, 1, 25,40255.215,11554.62,11829.3,6514.2,0.0
1, 1, 26,38298.645,10937.85,11610.9,6334.02,0.0
1, 1, 27,36861.825,10453.905,11384.1,6255.48,0.0
1, 1, 28,36052.17,10148.985,11184.6,6182.715,0.0
1, 1, 29,35539.35,9949.17,11001.9,6186.18,0.0
1, 1, 30,34522.95,9734.34,10235.4,6130.74,0.0
1, 1, 31,33208.56,9290.82,9639.0,5692.995,0.0
1, 1, 32,33909.645,9725.1,9603.3,5401.935,0.0
1, 1, 33,35309.505,10179.015,9631.65,5255.25,0.0
1, 1, 34,36629.67,10624.845,9618.0,5182.485,0.0
1, 1, 35,37624.125,11183.865,9611.7,5162.85,0.0
1, 1, 36,38528.49,11563.86,9665.25,4924.92,0.0
1, 1, 37,39069.03,11435.655,9704.1,5132.82,0.0
1, 1, 38,39110.61,11450.67,9814.35,5280.66,0.0
1, 1, 39,39139.485,11667.81,9990.75,5393.85,0.0
1, 1, 40,39257.295,11815.65,10015.95,5452.755,0.0
1, 1, 41,39990.72,12037.41,10044.3,5486.25,0.0
1, 1, 42,40969.005,12398.925,10199.7,5561.325,0.0
1, 1, 43,42685.335,12881.715,11642.4,5836.215,0.0
1, 1, 44,45878.91,13780.305,12001.5,6176.94,0.0
1, 1, 45,46157.265,14869.47,12096.0,6167.7,0.0
1, 1, 46,45712.59,14782.845,12255.6,6257.79,0.0
1, 1, 47,44662.695,14556.465,12299.7,6325.935,0.0
1, 1, 48,42482.055,13932.765,12109.65,6319.005,0.0
1, 1, 49,40221.72,13172.775,11785.2,6257.79,0.0
1, 1, 50,38560.83,12618.375,11540.55,6190.8,0.0
1, 1, 51,37357.32,12236.07,11307.45,6127.275,0.0
1, 1, 52,36720.915,12016.62,11120.55,6018.705,0.0
1, 1, 53,36874.53,12032.79,11009.25,5943.63,0.0
1, 1, 54,37416.225,12321.54,10511.55,5881.26,0.0
1, 1, 55,38735.235,12692.295,10242.75,5592.51,0.0
1, 1, 56,42498.225,14438.655,11050.2,5546.31,0.0
1, 1, 57,45891.615,16152.675,12016.2,6003.69,0.0
1, 1, 58,48143.865,17001.6,12439.35,6188.49,0.0
1, 1, 59,49483.665,17750.04,12823.65,6343.26,0.0
1, 1, 60,49512.54,17900.19,12819.45,6324.78,0.0
1, 1, 61,49215.705,17047.8,12652.5,6350.19,0.0
1, 1, 62,50613.255,18558.54,13068.3,6539.61,0.0
1, 1, 63,51355.92,19267.71,13353.9,6671.28,0.0
1, 1, 64,51515.31,19228.44,13265.7,6653.955,0.0
1, 1, 65,50929.725,19018.23,12865.65,6566.175,0.0
1, 1, 66,48071.1,17767.365,11639.25,6350.19,0.0
1, 1, 67,46976.16,15714.93,11870.25,6193.11,0.0
1, 1, 68,49807.065,16426.41,12186.3,6593.895,0.0
1, 1, 69,50528.94,17223.36,12135.9,6693.225,0.0
1, 1, 70,50468.88,17489.01,12932.85,6831.825,0.0
1, 1, 71,48552.735,17191.02,13183.8,6924.225,0.0
1, 1, 72,45785.355,16167.69,12972.75,6911.52,0.0
1, 1, 73,42954.45,15165.15,12608.4,6831.825,0.0
1, 1, 74,40325.67,14168.385,12241.95,6668.97,0.0
1, 1, 75,39007.815,13552.77,11984.7,6558.09,0.0
1, 1, 76,38377.185,13290.585,11866.05,6457.605,0.0
1, 1, 77,38376.03,13168.155,11742.15,6380.22,0.0
1, 1, 78,38935.05,13396.845,11059.65,6305.145,0.0
1, 1, 79,40146.645,13611.675,10706.85,6084.54,0.0
1, 1, 80,43659.0,15282.96,11562.6,6025.635,0.0
1, 1, 81,47124.0,16912.665,12454.05,6213.9,0.0
1, 1, 82,49403.97,17440.5,12850.95,6248.55,0.0
1, 1, 83,50744.925,18016.845,13079.85,6308.61,0.0
1, 1, 84,50756.475,17917.515,13022.1,6249.705,0.0
1, 1, 85,50597.085,16727.865,12737.55,6185.025,0.0
1, 1, 86,52088.19,18011.07,13116.6,6315.54,0.0
1, 1, 87,52827.39,18597.81,13426.35,6556.935,0.0
1, 1, 88,53086.11,18454.59,13289.85,6645.87,0.0
1, 1, 89,52494.75,18141.585,12825.75,6608.91,0.0
1, 1, 90,49379.715,16872.24,11618.25,6349.035,0.0
1, 1, 91,48205.08,15204.42,12007.8,6223.14,0.0
1, 1, 92,51323.58,15935.535,12195.75,6515.355,0.0
1, 1, 93,51578.835,16375.59,12382.65,6575.415,0.0
1, 1, 94,51451.785,16502.64,13212.15,6700.155,0.0
1, 1, 95,49230.72,16091.46,13344.45,6817.965,0.0
1, 1, 96,46071.795,15121.26,13066.2,6808.725,0.0
1, 1, 97,42873.6,14004.375,12141.15,6682.83,0.0
1, 1, 98,40426.155,13239.765,11942.7,6526.905,0.0
1, 1, 99,38896.935,12770.835,11814.6,6411.405,0.0
1, 1, 100,38300.955,12528.285,11682.3,6279.735,0.0
1, 1, 101,38302.11,12486.705,11589.9,6223.14,0.0
1, 1, 102,38814.93,12852.84,11093.25,6178.095,0.0
1, 1, 103,40182.45,13237.455,10712.1,5984.055,0.0
1, 1, 104,43849.575,14742.42,11505.9,5937.855,0.0
1, 1, 105,47318.04,16098.39,12440.4,6221.985,0.0
1, 1, 106,49418.985,16483.005,12769.05,6329.4,0.0
1, 1, 107,50541.645,16869.93,12786.9,6373.29,0.0
1, 1, 108,50464.26,16622.76,12572.7,6373.29,0.0
1, 1, 109,50130.465,15279.495,12192.6,6248.55,0.0
1, 1, 110,51650.445,16227.75,12425.7,6487.635,0.0
1, 1, 111,52418.52,16783.305,12779.55,6744.045,0.0
1, 1, 112,52465.875,16707.075,12681.9,6793.71,0.0
1, 1, 113,51904.545,16567.32,12350.1,6697.845,0.0
1, 1, 114,49130.235,15682.59,11530.05,6443.745,0.0
1, 1, 115,48600.09,14446.74,11962.65,6309.765,0.0
1, 1, 116,51197.685,15072.75,12102.3,6625.08,0.0
1, 1, 117,51284.31,15347.64,12031.95,6720.945,0.0
1, 1, 118,50949.36,15257.55,12624.15,6821.43,0.0
1, 1, 119,48676.32,14750.505,12676.65,6960.03,0.0
1, 1, 120,45347.61,13741.035,12360.6,6950.79,0.0
1, 1, 121,42353.85,12713.085,11937.45,6853.77,0.0
1, 1, 122,40151.265,12083.61,11627.7,6622.77,0.0
1, 1, 123,38741.01,11707.08,11372.55,6350.19,0.0
1, 1, 124,38274.39,11580.03,11249.7,6208.125,0.0
1, 1, 125,38515.785,11635.47,11151.0,6101.865,0.0
1, 1, 126,39447.87,12115.95,10736.25,6067.215,0.0
1, 1, 127,40686.03,12663.42,10355.1,5869.71,0.0
1, 1, 128,44080.575,14305.83,11081.7,5862.78,0.0
1, 1, 129,47015.43,15642.165,11873.4,6109.95,0.0
1, 1, 130,48515.775,16116.87,12191.55,6280.89,0.0
1, 1, 131,49565.67,16500.33,12381.6,6380.22,0.0
1, 1, 132,49265.37,16439.115,12352.2,6402.165,0.0
1, 1, 133,48540.03,15167.46,12028.8,6332.865,0.0
1, 1, 134,49383.18,16144.59,12338.55,6601.98,0.0
1, 1, 135,49837.095,16707.075,12532.8,6876.87,0.0
1, 1, 136,49956.06,16718.625,12510.75,6874.56,0.0
1, 1, 137,49297.71,16674.735,12199.95,6753.285,0.0
1, 1, 138,47620.65,15817.725,11326.35,6481.86,0.0
1, 1, 139,47835.48,14516.04,11647.65,6323.625,0.0
1, 1, 140,49741.23,15190.56,11724.3,6692.07,0.0
1, 1, 141,49529.865,15680.28,11677.05,6820.275,0.0
1, 1, 142,49037.835,15606.36,12289.2,6948.48,0.0
1, 1, 143,46621.575,15081.99,12236.7,7043.19,0.0
1, 1, 144,43662.465,14059.815,11884.95,6996.99,0.0
1, 1, 145,40718.37,13016.85,11483.85,6712.86,0.0
1, 1, 146,38389.89,12249.93,11173.05,6569.64,0.0
1, 1, 147,37141.335,11776.38,10950.45,6354.81,0.0
1, 1, 148,36603.105,11566.17,10829.7,6375.6,0.0
1, 1, 149,36894.165,11558.085,10721.55,6339.795,0.0
1, 1, 150,38113.845,12005.07,10379.25,6313.23,0.0
1, 1, 151,39511.395,12491.325,10072.65,6011.775,0.0
1, 1, 152,42789.285,14179.935,10810.8,5958.645,0.0
1, 1, 153,45651.375,15547.455,11597.25,6255.48,0.0
1, 1, 154,47442.78,16115.715,11920.65,6426.42,0.0
1, 1, 155,48619.725,16678.2,12018.3,6464.535,0.0
1, 1, 156,48499.605,16673.58,11993.1,6420.645,0.0
1, 1, 157,48173.895,15508.185,11763.15,6379.065,0.0
1, 1, 158,49233.03,16570.785,12123.3,6556.935,0.0
1, 1, 159,49721.595,17270.715,12348.0,6774.075,0.0
1, 1, 160,49461.72,17289.195,12239.85,6806.415,0.0
1, 1, 161,48708.66,17097.465,11958.45,6683.985,0.0
1, 1, 162,47036.22,16200.03,11284.35,6468.0,0.0
1, 1, 163,46726.68,14815.185,11787.3,6346.725,0.0
1, 1, 164,49402.815,15404.235,11897.55,6747.51,0.0
1, 1, 165,49693.875,16036.02,11845.05,6889.575,0.0
1, 1, 166,48781.425,15962.1,12336.45,6977.355,0.0
1, 1, 167,46420.605,15528.975,12271.35,7054.74,0.0
1, 1, 168,43613.955,14610.75,12019.35,7017.78,0.0
